// Jest Snapshot v1, https://goo.gl/fbAQLP

exports[`Тестирование комопнента Button Должена отобразиться кнопка Button без класса, без контекта 1`] = `
<button
  class="Button Button_size_m Button_type_default"
  type="button"
>
  <div
    class="Button__Container Button__Container_no-icons"
  >
    <div
      class="Button__Content"
    />
  </div>
</button>
`;

exports[`Тестирование комопнента Button Должена отобразиться кнопка Button в состоянии disabled  1`] = `
<button
  class="Button Button_disabled Button_size_m Button_type_default"
  disabled=""
  type="button"
>
  <div
    class="Button__Container Button__Container_no-icons"
  >
    <div
      class="Button__Content"
    >
      Disabled
    </div>
  </div>
</button>
`;

exports[`Тестирование комопнента Button Должена отобразиться кнопка Button в состоянии processing 1`] = `
<button
  class="Button Button_processing Button_size_m Button_type_default"
  type="button"
>
  <div
    class="Button__Container Button__Container_no-icons"
  >
    <div
      class="Button__Content"
    >
      Processing
    </div>
    <div
      class="Button__Spin"
    >
      <div
        class="Spin Spin_size_m Spin_type_default"
      />
    </div>
  </div>
</button>
`;

exports[`Тестирование комопнента Button Должена отобразиться кнопка Button с htmlType = submit 1`] = `
<button
  class="Button Button_size_m Button_type_default"
  type="submit"
>
  <div
    class="Button__Container Button__Container_no-icons"
  >
    <div
      class="Button__Content"
    />
  </div>
</button>
`;

exports[`Тестирование комопнента Button Должена отобразиться кнопка Button с htmlType = submit 2`] = `
<button
  class="Button Button_size_m Button_type_default"
  type="submit"
>
  <div
    class="Button__Container Button__Container_no-icons"
  >
    <div
      class="Button__Content"
    />
  </div>
</button>
`;

exports[`Тестирование комопнента Button Должена отобразиться кнопка Button с size = "l" 1`] = `
<button
  class="Button Button_size_l Button_type_default Container__Button"
  type="button"
>
  <div
    class="Button__Container Button__Container_no-icons"
  >
    <div
      class="Button__Content"
    />
  </div>
</button>
`;

exports[`Тестирование комопнента Button Должена отобразиться кнопка Button с size = "m" 1`] = `
<button
  class="Button Button_size_m Button_type_default Container__Button"
  type="button"
>
  <div
    class="Button__Container Button__Container_no-icons"
  >
    <div
      class="Button__Content"
    />
  </div>
</button>
`;

exports[`Тестирование комопнента Button Должена отобразиться кнопка Button с size = "m" по-умолчанию 1`] = `
<button
  class="Button Button_size_m Button_type_default Container__Button"
  type="button"
>
  <div
    class="Button__Container Button__Container_no-icons"
  >
    <div
      class="Button__Content"
    />
  </div>
</button>
`;

exports[`Тестирование комопнента Button Должена отобразиться кнопка Button с size = "s" 1`] = `
<button
  class="Button Button_size_s Button_type_default Container__Button"
  type="button"
>
  <div
    class="Button__Container Button__Container_no-icons"
  >
    <div
      class="Button__Content"
    />
  </div>
</button>
`;

exports[`Тестирование комопнента Button Должена отобразиться кнопка Button с size = "xl" 1`] = `
<button
  class="Button Button_size_xl Button_type_default Container__Button"
  type="button"
>
  <div
    class="Button__Container Button__Container_no-icons"
  >
    <div
      class="Button__Content"
    />
  </div>
</button>
`;

exports[`Тестирование комопнента Button Должена отобразиться кнопка Button с size = "xs" 1`] = `
<button
  class="Button Button_size_xs Button_type_default Container__Button"
  type="button"
>
  <div
    class="Button__Container Button__Container_no-icons"
  >
    <div
      class="Button__Content"
    />
  </div>
</button>
`;

exports[`Тестирование комопнента Button Должена отобразиться кнопка Button с size = "xxl" 1`] = `
<button
  class="Button Button_size_xxl Button_type_default Container__Button"
  type="button"
>
  <div
    class="Button__Container Button__Container_no-icons"
  >
    <div
      class="Button__Content"
    />
  </div>
</button>
`;

exports[`Тестирование комопнента Button Должена отобразиться кнопка Button с type = "default" по-умолчанию 1`] = `
<button
  class="Button Button_size_m Button_type_default"
  type="button"
>
  <div
    class="Button__Container Button__Container_no-icons"
  >
    <div
      class="Button__Content"
    />
  </div>
</button>
`;

exports[`Тестирование комопнента Button Должена отобразиться кнопка Button с заданным классом: 
            <button class="" type="button"></button>
         1`] = `
<button
  class="Button Button_size_m Button_type_default Container__Button"
  type="button"
>
  <div
    class="Button__Container Button__Container_no-icons"
  >
    <div
      class="Button__Content"
    />
  </div>
</button>
`;

exports[`Тестирование комопнента Button Должена отобразиться кнопка Button с иконкой - компонентом слева и текстом 1`] = `
<button
  class="Button Button_size_m Button_type_default"
  type="button"
>
  <div
    class="Button__Container"
  >
    <div
      class="Button__IconLeft"
    >
      <span
        class="FeatherIcon"
      >
        <svg
          class="feather feather-chevron-left"
          fill="none"
          height="24"
          stroke="currentColor"
          stroke-linecap="round"
          stroke-linejoin="round"
          stroke-width="2"
          viewBox="0 0 24 24"
          width="24"
          xmlns="http://www.w3.org/2000/svg"
        >
          <polyline
            points="15 18 9 12 15 6"
          />
        </svg>
      </span>
    </div>
    <div
      class="Button__Content"
    >
      Кнопка с иконкой слева
    </div>
  </div>
</button>
`;

exports[`Тестирование комопнента Button Должена отобразиться кнопка Button с иконкой - компонентом справа и текстом 1`] = `
<button
  class="Button Button_size_m Button_type_default"
  type="button"
>
  <div
    class="Button__Container"
  >
    <div
      class="Button__Content"
    >
      Кнопка с иконкой справа
    </div>
    <div
      class="Button__IconRight"
    >
      <span
        class="FeatherIcon"
      >
        <svg
          class="feather feather-chevron-right"
          fill="none"
          height="24"
          stroke="currentColor"
          stroke-linecap="round"
          stroke-linejoin="round"
          stroke-width="2"
          viewBox="0 0 24 24"
          width="24"
          xmlns="http://www.w3.org/2000/svg"
        >
          <polyline
            points="9 18 15 12 9 6"
          />
        </svg>
      </span>
    </div>
  </div>
</button>
`;

exports[`Тестирование комопнента Button Должена отобразиться кнопка Button с иконкой github 1`] = `
<button
  class="Button Button_size_m Button_type_default"
  type="button"
>
  <div
    class="Button__Container Button__Container_no-icons"
  >
    <div
      class="Button__Content"
    >
      <span
        class="FeatherIcon"
      >
        <svg
          class="feather feather-github"
          fill="none"
          height="24"
          stroke="currentColor"
          stroke-linecap="round"
          stroke-linejoin="round"
          stroke-width="2"
          viewBox="0 0 24 24"
          width="24"
          xmlns="http://www.w3.org/2000/svg"
        >
          <path
            d="M9 19c-5 1.5-5-2.5-7-3m14 6v-3.87a3.37 3.37 0 0 0-.94-2.61c3.14-.35 6.44-1.54 6.44-7A5.44 5.44 0 0 0 20 4.77 5.07 5.07 0 0 0 19.91 1S18.73.65 16 2.48a13.38 13.38 0 0 0-7 0C6.27.65 5.09 1 5.09 1A5.07 5.07 0 0 0 5 4.77a5.44 5.44 0 0 0-1.5 3.78c0 5.42 3.3 6.61 6.44 7A3.37 3.37 0 0 0 9 18.13V22"
          />
        </svg>
      </span>
    </div>
  </div>
</button>
`;

exports[`Тестирование комопнента Button Должена отобразиться кнопка Button с текстом "Отправить" 1`] = `
<button
  class="Button Button_size_m Button_type_default"
  type="button"
>
  <div
    class="Button__Container Button__Container_no-icons"
  >
    <div
      class="Button__Content"
    >
      Отправить
    </div>
  </div>
</button>
`;

exports[`Тестирование комопнента Button Должена отобразиться кнопка Button с текстом и иконкой  1`] = `
<button
  class="Button Button_size_m Button_type_default"
  type="button"
>
  <div
    class="Button__Container Button__Container_no-icons"
  >
    <div
      class="Button__Content"
    >
      <span
        class="FeatherIcon"
      >
        <svg
          class="feather feather-github"
          fill="none"
          height="24"
          stroke="currentColor"
          stroke-linecap="round"
          stroke-linejoin="round"
          stroke-width="2"
          viewBox="0 0 24 24"
          width="24"
          xmlns="http://www.w3.org/2000/svg"
        >
          <path
            d="M9 19c-5 1.5-5-2.5-7-3m14 6v-3.87a3.37 3.37 0 0 0-.94-2.61c3.14-.35 6.44-1.54 6.44-7A5.44 5.44 0 0 0 20 4.77 5.07 5.07 0 0 0 19.91 1S18.73.65 16 2.48a13.38 13.38 0 0 0-7 0C6.27.65 5.09 1 5.09 1A5.07 5.07 0 0 0 5 4.77a5.44 5.44 0 0 0-1.5 3.78c0 5.42 3.3 6.61 6.44 7A3.37 3.37 0 0 0 9 18.13V22"
          />
        </svg>
      </span>
    </div>
  </div>
</button>
`;

exports[`Тестирование комопнента Button Должна отобразиться кнопка Button с content="Название" 1`] = `
<button
  class="Button Button_size_m Button_type_default"
  type="button"
>
  <div
    class="Button__Container Button__Container_no-icons"
  >
    <div
      class="Button__Content"
    >
      <div
        class="Button__ContentName"
      >
        Название
      </div>
    </div>
  </div>
</button>
`;

exports[`Тестирование комопнента Button Должна отобразиться кнопка Button со свойством autofocus 1`] = `
<button
  class="Button Button_size_m Button_type_default"
  name="nameForButton"
  type="button"
>
  <div
    class="Button__Container Button__Container_no-icons"
  >
    <div
      class="Button__Content"
    />
  </div>
</button>
`;

exports[`Тестирование комопнента Button Должна отобразиться кнопка Button со свойством block 1`] = `
<button
  class="Button Button_block Button_size_m Button_type_default"
  type="button"
>
  <div
    class="Button__Container Button__Container_no-icons"
  >
    <div
      class="Button__Content"
    />
  </div>
</button>
`;

exports[`Тестирование комопнента Button Должна отобразиться кнопка Button со свойством name = "nameForButton" 1`] = `
<button
  class="Button Button_size_m Button_type_default"
  name="nameForButton"
  type="button"
>
  <div
    class="Button__Container Button__Container_no-icons"
  >
    <div
      class="Button__Content"
    />
  </div>
</button>
`;

exports[`Тестирование комопнента Button передали type type="danger" -> есть класс Button_type_danger 1`] = `
<button
  class="Button Button_size_m Button_type_danger"
  type="button"
>
  <div
    class="Button__Container Button__Container_no-icons"
  >
    <div
      class="Button__Content"
    />
  </div>
</button>
`;

exports[`Тестирование комопнента Button передали type type="default" -> есть класс Button_type_default 1`] = `
<button
  class="Button Button_size_m Button_type_default"
  type="button"
>
  <div
    class="Button__Container Button__Container_no-icons"
  >
    <div
      class="Button__Content"
    />
  </div>
</button>
`;

exports[`Тестирование комопнента Button передали type type="info" -> есть класс Button_type_info 1`] = `
<button
  class="Button Button_size_m Button_type_info"
  type="button"
>
  <div
    class="Button__Container Button__Container_no-icons"
  >
    <div
      class="Button__Content"
    />
  </div>
</button>
`;

exports[`Тестирование комопнента Button передали type type="primary" -> есть класс Button_type_primary 1`] = `
<button
  class="Button Button_size_m Button_type_primary"
  type="button"
>
  <div
    class="Button__Container Button__Container_no-icons"
  >
    <div
      class="Button__Content"
    />
  </div>
</button>
`;

exports[`Тестирование комопнента Button передали type type="secondary" -> есть класс Button_type_secondary 1`] = `
<button
  class="Button Button_size_m Button_type_secondary"
  type="button"
>
  <div
    class="Button__Container Button__Container_no-icons"
  >
    <div
      class="Button__Content"
    />
  </div>
</button>
`;

exports[`Тестирование комопнента Button передали type type="success" -> есть класс Button_type_success 1`] = `
<button
  class="Button Button_size_m Button_type_success"
  type="button"
>
  <div
    class="Button__Container Button__Container_no-icons"
  >
    <div
      class="Button__Content"
    />
  </div>
</button>
`;

exports[`Тестирование комопнента Button передали type type="warning" -> есть класс Button_type_warning 1`] = `
<button
  class="Button Button_size_m Button_type_warning"
  type="button"
>
  <div
    class="Button__Container Button__Container_no-icons"
  >
    <div
      class="Button__Content"
    />
  </div>
</button>
`;
