<svg xmlns="http://www.w3.org/2000/svg" width="158" height="135" viewBox="0 0 158 135">
    <g fill="none" fill-rule="evenodd">
        <path fill="#FDFDFD" d="M69.652 3.594c4.258 0 8.994 3.247 10.522 7.217l3.398 8.825 62.298.206c4.47 0 8.13 3.652 8.13 8.118l-3.55 82.31c0 4.252-3.483 7.73-7.74 7.73H16.29c-4.26 0-7.743-3.478-7.743-7.73L5 11.117C5 6.654 8.657 3 13.13 3l56.522.594z"/>
        <path fill="#0B1F35" d="M11.38 1.5C6.57 1.5 4.5 4.612 4.5 8.434l3.54 99.588c0 3.652 2.92 6.59 6.504 6.59H140.6c3.585 0 6.502-2.938 6.502-6.546l3.54-82.76c0-3.77-1.071-6.25-6.892-6.882L80.8 18.21l-3.69-9.647c-2.04-4.008-4.54-6.468-9.358-6.468L11.38 1.5zM139.528 117H15.474C10.547 117 7 113.018 7 108.061L3.5 8.508C3.5 3.295 6 .5 11.308.5L66.5 1c3.319 0 7.5-.5 11.25 7l3.75 8.924 62.18.576c6.32.868 7.32 2.5 7.82 7.751l-3.04 82.81c0 4.906-3.005 8.939-7.931 8.939h-1z"/>
        <path fill="#FDFDFD" d="M12.455 77.843L8 35.322 149.296 25.5 153 69.033z"/>
        <path fill="#0B1F35" d="M11.55 33.432l3.951 39.038 131.949-9.901L143.5 23.53l-131.95 9.901zM14.5 74l-4-40.568a1.221 1.221 0 0 1 1.118-1.344L143.5 22.5c.703-.046.933-.158.999.5l4 40.5c.034.33.428.726.216.978a1.212 1.212 0 0 1-.84.435L15.502 74.998c-.71.002-.939-.37-1.002-.998z"/>
        <path fill="#FAFAFA" d="M89.442 31.538c-4.516 0-9.536 2.936-11.158 6.525l-3.604 7.98-66.061.188c-4.74 0-8.619 3.303-8.619 7.34l3.76 74.44c0 3.845 3.694 6.989 8.21 6.989h134.057c4.516 0 8.21-3.144 8.21-6.99L158 38.342c0-4.04-3.879-7.342-8.621-7.342l-59.937.538z"/>
        <path fill="#0B1F35" d="M149.191 32.435l-59.769.535c-4.026 0-8.613 2.65-10.031 5.785l-3.92 8.657-66.662.19c-4.075 0-7.386 2.732-7.386 6.092l3.75 74.065c.002 3.228 3.131 5.806 6.976 5.806h133.698c3.846 0 6.975-2.578 6.975-5.743l3.753-89.347c0-3.306-3.311-6.04-7.384-6.04zM12.15 135c-5.184 0-8.4-2.669-8.4-7.178L0 53.757c-.002-4.762 3.397-7.59 8.806-7.59L74.5 46l3.68-8.253c1.8-3.976 6.285-6.211 11.23-6.211L149.18 31c5.418 0 8.82 2.825 8.82 7.528l-3.752 89.345c0 4.458-3.216 7.127-8.401 7.127H12.149z"/>
    </g>
</svg>
