<svg xmlns="http://www.w3.org/2000/svg" width="101" height="82" viewBox="0 0 101 82">
  <path d="M79,78 L79,82 L5,82 C2.23857625,82 2.11453371e-15,79.7614237 1.77635684e-15,77 L0,5 C-3.38176876e-16,2.23857625 2.23857625,0 5,1.77635684e-15 L36,1.59872116e-14 L45,11.7952837 L85,11.7952837 C87.7614237,11.7952837 90,14.03386 90,16.7952837 L90,51.5 L90,26 L86,26 L86,16.7952837 C86,16.242999 85.5522847,15.7952837 85,15.7952837 L43.0206545,15.7952837 L34.0206545,4 L5,4 C4.44771525,4 4,4.44771525 4,5 L4,77 C4,77.5522847 4.44771525,78 5,78 L79,78 Z"/>
  <path d="M24.4650023,30 C24.0481578,30 23.6750371,30.2585728 23.5286732,30.6488766 L6.27867316,76.6488766 C6.23656927,76.7611536 6.21500234,76.880088 6.21500234,77 C6.21500234,77.5522847 6.66271759,78 7.21500234,78 L78.5349977,78 C78.9518422,78 79.3249629,77.7414272 79.4713268,77.3511234 L96.7213268,31.3511234 C96.7634307,31.2388464 96.7849977,31.119912 96.7849977,31 C96.7849977,30.4477153 96.3372824,30 95.7849977,30 L24.4650023,30 Z M24.4650023,26 L95.7849977,26 C98.5464214,26 100.784998,28.2385763 100.784998,31 C100.784998,31.5995598 100.677163,32.1942319 100.466644,32.7556172 L83.2166435,78.7556172 C82.4848241,80.7071358 80.6192205,82 78.5349977,82 L7.21500234,82 C4.45357859,82 2.21500234,79.7614237 2.21500234,77 C2.21500234,76.4004402 2.32283697,75.8057681 2.53335645,75.2443828 L19.7833565,29.2443828 C20.5151759,27.2928642 22.3807795,26 24.4650023,26 Z"/>
</svg>
