// Jest Snapshot v1, https://goo.gl/fbAQLP

exports[`Тестирование компонента Notification Должен отобразиться Notification c параметрами по-умолчанию 1`] = `
<div
  class="Notification Notification_size_m Notification_type_info"
>
  <button
    class="Notification__Close Notification__Close_size_m Notification__Close_type_info"
    type="button"
  />
</div>
`;

exports[`Тестирование компонента Notification Должен отобразиться Notification закрываем уведомление 1`] = `
<button
  class="Notification__Close Notification__Close_size_m Notification__Close_type_info"
  type="button"
/>
`;

exports[`Тестирование компонента Notification Должен отобразиться Notification закрываем уведомление onClose 1`] = `
<button
  class="Notification__Close Notification__Close_size_m Notification__Close_type_info"
  type="button"
/>
`;
