[{
	"id": 0,
	"name": "Австралия"
}, {
	"id": 1,
	"name": "Австрия"
},  {
	"id": 80,
	"name": "КНДР"
}, {
	"disabled": true,
	"id": 81,
	"name": "Республика Корея"
}, {
	"id": 116,
	"name": "Нидерланды"
},  {
	"disabled": true,
	"id": 119,
	"name": "Норвегия"
}, {
	"id": 120,
	"name": "ОАЭ"
},  {
	"id": 130,
	"name": "Россия"
},  {
	"id": 149,
	"name": "США"
}]
