// Jest Snapshot v1, https://goo.gl/fbAQLP

exports[`Тестирование компонента InputSlider Должен отобразиться InputSlider без заголовка и placeholder 1`] = `
<div
  class="InputSlider InputSlider_size_m InputSlider_type_primary"
>
  <div
    class="InputSlider__Input InputSlider__Input_size_m InputSlider__Input_type_primary"
  >
    <div
      class="Input Input_size_m"
    >
      <label
        class="Input__Label"
      >
        <input
          class="Input__Input Input__Input_size_m"
          placeholder=""
          value=""
        />
      </label>
      <div
        class="Input__ErrorDetail Input__ErrorDetail_size_m"
      >
        <div
          class="Input__ErrorIcon Input__ErrorIcon_size_m"
        >
          <span
            class="FeatherIcon"
          >
            <svg
              class="feather feather-alert-circle"
              fill="none"
              height="24"
              stroke="currentColor"
              stroke-linecap="round"
              stroke-linejoin="round"
              stroke-width="2"
              viewBox="0 0 24 24"
              width="24"
              xmlns="http://www.w3.org/2000/svg"
            >
              <circle
                cx="12"
                cy="12"
                r="10"
              />
              <line
                x1="12"
                x2="12"
                y1="8"
                y2="12"
              />
              <line
                x1="12"
                x2="12.01"
                y1="16"
                y2="16"
              />
            </svg>
          </span>
        </div>
        <div
          class="Input__Tooltip Input__Tooltip_size_m"
        />
      </div>
    </div>
  </div>
  <div
    class="InputSlider__Slider InputSlider__Slider_size_m Input__Slider_type_primary"
  >
    <div
      class="Slider Slider_size_m Slider_type_primary"
    >
      <div
        class="Slider__Rail Slider__Rail_size_m Slider__Rail_type_primary"
      >
        <div
          class="Slider__Track Slider__Track_size_m Slider__Track_type_primary"
          style="width: 0%;"
        />
      </div>
      <button
        class="Slider__HandleWrapper Slider__HandleWrapper_size_m Slider__HandleWrapper_type_primary"
        style="left: 0%;"
        type="button"
      >
        <span
          class="Slider__Handle Slider__Handle_size_m Slider__Handle_type_primary"
        />
      </button>
    </div>
  </div>
</div>
`;

exports[`Тестирование компонента InputSlider Должен отобразиться InputSlider в состоянии disabled 1`] = `
<div
  class="InputSlider InputSlider_size_m InputSlider_type_primary"
>
  <div
    class="InputSlider__Input InputSlider__Input_size_m InputSlider__Input_type_primary"
  >
    <div
      class="Input Input_size_m Input_disabled"
    >
      <label
        class="Input__Label"
      >
        <span
          class="Input__LabelText Input__LabelText_size_m"
        >
          Disabled поле
        </span>
        <input
          class="Input__Input Input__Input_size_m Input__Input_with-label"
          disabled=""
          placeholder=""
          value=""
        />
        <div
          class="Input__DisabledIcon Input__DisabledIcon_size_m"
        >
          <span
            class="FeatherIcon"
          >
            <svg
              class="feather feather-lock"
              fill="none"
              height="24"
              stroke="currentColor"
              stroke-linecap="round"
              stroke-linejoin="round"
              stroke-width="2"
              viewBox="0 0 24 24"
              width="24"
              xmlns="http://www.w3.org/2000/svg"
            >
              <rect
                height="11"
                rx="2"
                ry="2"
                width="18"
                x="3"
                y="11"
              />
              <path
                d="M7 11V7a5 5 0 0 1 10 0v4"
              />
            </svg>
          </span>
        </div>
      </label>
      <div
        class="Input__ErrorDetail Input__ErrorDetail_size_m"
      >
        <div
          class="Input__ErrorIcon Input__ErrorIcon_size_m"
        >
          <span
            class="FeatherIcon"
          >
            <svg
              class="feather feather-alert-circle"
              fill="none"
              height="24"
              stroke="currentColor"
              stroke-linecap="round"
              stroke-linejoin="round"
              stroke-width="2"
              viewBox="0 0 24 24"
              width="24"
              xmlns="http://www.w3.org/2000/svg"
            >
              <circle
                cx="12"
                cy="12"
                r="10"
              />
              <line
                x1="12"
                x2="12"
                y1="8"
                y2="12"
              />
              <line
                x1="12"
                x2="12.01"
                y1="16"
                y2="16"
              />
            </svg>
          </span>
        </div>
        <div
          class="Input__Tooltip Input__Tooltip_size_m"
        />
      </div>
    </div>
  </div>
  <div
    class="InputSlider__Slider InputSlider__Slider_size_m Input__Slider_type_primary"
  >
    <div
      class="Slider Slider_size_m Slider_type_primary Slider_disabled"
    >
      <div
        class="Slider__Rail Slider__Rail_size_m Slider__Rail_type_primary Slider__Rail_disabled"
      >
        <div
          class="Slider__Track Slider__Track_size_m Slider__Track_type_primary Slider__Track_disabled"
          style="width: 0%;"
        />
      </div>
      <button
        class="Slider__HandleWrapper Slider__HandleWrapper_size_m Slider__HandleWrapper_type_primary Slider__HandleWrapper_disabled"
        style="left: 0%;"
        type="button"
      >
        <span
          class="Slider__Handle Slider__Handle_size_m Slider__Handle_type_primary Slider__Handle_disabled"
        />
      </button>
    </div>
  </div>
</div>
`;

exports[`Тестирование компонента InputSlider Должен отобразиться InputSlider в состоянии focus 1`] = `
<div
  class="InputSlider InputSlider_size_m InputSlider_type_primary"
>
  <div
    class="InputSlider__Input InputSlider__Input_size_m InputSlider__Input_type_primary"
  >
    <div
      class="Input Input_size_m"
    >
      <label
        class="Input__Label"
      >
        <span
          class="Input__LabelText Input__LabelText_size_m Input__LabelText_place-top Input__LabelText_focus"
        >
          Стоимость
        </span>
        <input
          class="Input__Input Input__Input_size_m Input__Input_with-label"
          placeholder=""
          value=""
        />
      </label>
      <div
        class="Input__ErrorDetail Input__ErrorDetail_size_m"
      >
        <div
          class="Input__ErrorIcon Input__ErrorIcon_size_m"
        >
          <span
            class="FeatherIcon"
          >
            <svg
              class="feather feather-alert-circle"
              fill="none"
              height="24"
              stroke="currentColor"
              stroke-linecap="round"
              stroke-linejoin="round"
              stroke-width="2"
              viewBox="0 0 24 24"
              width="24"
              xmlns="http://www.w3.org/2000/svg"
            >
              <circle
                cx="12"
                cy="12"
                r="10"
              />
              <line
                x1="12"
                x2="12"
                y1="8"
                y2="12"
              />
              <line
                x1="12"
                x2="12.01"
                y1="16"
                y2="16"
              />
            </svg>
          </span>
        </div>
        <div
          class="Input__Tooltip Input__Tooltip_size_m"
        />
      </div>
    </div>
  </div>
  <div
    class="InputSlider__Slider InputSlider__Slider_size_m Input__Slider_type_primary"
  >
    <div
      class="Slider Slider_size_m Slider_type_primary"
    >
      <div
        class="Slider__Rail Slider__Rail_size_m Slider__Rail_type_primary"
      >
        <div
          class="Slider__Track Slider__Track_size_m Slider__Track_type_primary"
          style="width: 0%;"
        />
      </div>
      <button
        class="Slider__HandleWrapper Slider__HandleWrapper_size_m Slider__HandleWrapper_type_primary"
        style="left: 0%;"
        type="button"
      >
        <span
          class="Slider__Handle Slider__Handle_size_m Slider__Handle_type_primary"
        />
      </button>
    </div>
  </div>
</div>
`;

exports[`Тестирование компонента InputSlider Должен отобразиться InputSlider в состоянии read only 1`] = `
<div
  class="InputSlider InputSlider_size_m InputSlider_type_primary"
>
  <div
    class="InputSlider__Input InputSlider__Input_size_m InputSlider__Input_type_primary"
  >
    <div
      class="Input Input_size_m"
    >
      <label
        class="Input__Label"
      >
        <span
          class="Input__LabelText Input__LabelText_size_m"
        >
          Readonly поле
        </span>
        <input
          class="Input__Input Input__Input_size_m Input__Input_readonly Input__Input_with-label"
          placeholder=""
          readonly=""
          value=""
        />
      </label>
      <div
        class="Input__ErrorDetail Input__ErrorDetail_size_m"
      >
        <div
          class="Input__ErrorIcon Input__ErrorIcon_size_m"
        >
          <span
            class="FeatherIcon"
          >
            <svg
              class="feather feather-alert-circle"
              fill="none"
              height="24"
              stroke="currentColor"
              stroke-linecap="round"
              stroke-linejoin="round"
              stroke-width="2"
              viewBox="0 0 24 24"
              width="24"
              xmlns="http://www.w3.org/2000/svg"
            >
              <circle
                cx="12"
                cy="12"
                r="10"
              />
              <line
                x1="12"
                x2="12"
                y1="8"
                y2="12"
              />
              <line
                x1="12"
                x2="12.01"
                y1="16"
                y2="16"
              />
            </svg>
          </span>
        </div>
        <div
          class="Input__Tooltip Input__Tooltip_size_m"
        />
      </div>
    </div>
  </div>
  <div
    class="InputSlider__Slider InputSlider__Slider_size_m Input__Slider_type_primary"
  >
    <div
      class="Slider Slider_size_m Slider_type_primary Slider_readonly"
    >
      <div
        class="Slider__Rail Slider__Rail_size_m Slider__Rail_type_primary Slider__Rail_readonly"
      >
        <div
          class="Slider__Track Slider__Track_size_m Slider__Track_type_primary Slider__Track_readonly"
          style="width: 0%;"
        />
      </div>
      <button
        class="Slider__HandleWrapper Slider__HandleWrapper_size_m Slider__HandleWrapper_type_primary Slider__HandleWrapper_readonly"
        style="left: 0%;"
        type="button"
      >
        <span
          class="Slider__Handle Slider__Handle_size_m Slider__Handle_type_primary Slider__Handle_readonly"
        />
      </button>
    </div>
  </div>
</div>
`;

exports[`Тестирование компонента InputSlider Должен отобразиться InputSlider в состоянии success 1`] = `
<div
  class="InputSlider InputSlider_size_m InputSlider_type_primary"
>
  <div
    class="InputSlider__Input InputSlider__Input_size_m InputSlider__Input_type_primary"
  >
    <div
      class="Input Input_size_m"
    >
      <label
        class="Input__Label"
      >
        <span
          class="Input__LabelText Input__LabelText_size_m Input__LabelText_place-top"
        >
          Валидное поле
        </span>
        <input
          class="Input__Input Input__Input_size_m Input__Input_success Input__Input_with-label"
          placeholder=""
          value="admin@example.com"
        />
      </label>
      <div
        class="Input__ErrorDetail Input__ErrorDetail_size_m"
      >
        <div
          class="Input__ErrorIcon Input__ErrorIcon_size_m"
        >
          <span
            class="FeatherIcon"
          >
            <svg
              class="feather feather-alert-circle"
              fill="none"
              height="24"
              stroke="currentColor"
              stroke-linecap="round"
              stroke-linejoin="round"
              stroke-width="2"
              viewBox="0 0 24 24"
              width="24"
              xmlns="http://www.w3.org/2000/svg"
            >
              <circle
                cx="12"
                cy="12"
                r="10"
              />
              <line
                x1="12"
                x2="12"
                y1="8"
                y2="12"
              />
              <line
                x1="12"
                x2="12.01"
                y1="16"
                y2="16"
              />
            </svg>
          </span>
        </div>
        <div
          class="Input__Tooltip Input__Tooltip_size_m"
        />
      </div>
    </div>
  </div>
  <div
    class="InputSlider__Slider InputSlider__Slider_size_m Input__Slider_type_primary"
  >
    <div
      class="Slider Slider_size_m Slider_type_primary"
    >
      <div
        class="Slider__Rail Slider__Rail_size_m Slider__Rail_type_primary"
      >
        <div
          class="Slider__Track Slider__Track_size_m Slider__Track_type_primary"
          style="width: 0%;"
        />
      </div>
      <button
        class="Slider__HandleWrapper Slider__HandleWrapper_size_m Slider__HandleWrapper_type_primary"
        style="left: 0%;"
        type="button"
      >
        <span
          class="Slider__Handle Slider__Handle_size_m Slider__Handle_type_primary"
        />
      </button>
    </div>
  </div>
</div>
`;

exports[`Тестирование компонента InputSlider Должен отобразиться InputSlider с label = "<span>Стоимость</span>"  1`] = `
<div
  class="InputSlider InputSlider_size_m InputSlider_type_primary"
>
  <div
    class="InputSlider__Input InputSlider__Input_size_m InputSlider__Input_type_primary"
  >
    <div
      class="Input Input_size_m"
    >
      <label
        class="Input__Label"
      >
        <span
          class="Input__LabelText Input__LabelText_size_m"
        >
          <span>
            Стоимость
          </span>
        </span>
        <input
          class="Input__Input Input__Input_size_m Input__Input_with-label"
          placeholder=""
          value=""
        />
      </label>
      <div
        class="Input__ErrorDetail Input__ErrorDetail_size_m"
      >
        <div
          class="Input__ErrorIcon Input__ErrorIcon_size_m"
        >
          <span
            class="FeatherIcon"
          >
            <svg
              class="feather feather-alert-circle"
              fill="none"
              height="24"
              stroke="currentColor"
              stroke-linecap="round"
              stroke-linejoin="round"
              stroke-width="2"
              viewBox="0 0 24 24"
              width="24"
              xmlns="http://www.w3.org/2000/svg"
            >
              <circle
                cx="12"
                cy="12"
                r="10"
              />
              <line
                x1="12"
                x2="12"
                y1="8"
                y2="12"
              />
              <line
                x1="12"
                x2="12.01"
                y1="16"
                y2="16"
              />
            </svg>
          </span>
        </div>
        <div
          class="Input__Tooltip Input__Tooltip_size_m"
        />
      </div>
    </div>
  </div>
  <div
    class="InputSlider__Slider InputSlider__Slider_size_m Input__Slider_type_primary"
  >
    <div
      class="Slider Slider_size_m Slider_type_primary"
    >
      <div
        class="Slider__Rail Slider__Rail_size_m Slider__Rail_type_primary"
      >
        <div
          class="Slider__Track Slider__Track_size_m Slider__Track_type_primary"
          style="width: 0%;"
        />
      </div>
      <button
        class="Slider__HandleWrapper Slider__HandleWrapper_size_m Slider__HandleWrapper_type_primary"
        style="left: 0%;"
        type="button"
      >
        <span
          class="Slider__Handle Slider__Handle_size_m Slider__Handle_type_primary"
        />
      </button>
    </div>
  </div>
</div>
`;

exports[`Тестирование компонента InputSlider Должен отобразиться InputSlider с label = "[<span>Стоимость</span>,<strong>недвижимости</strong>]"  1`] = `
<div
  class="InputSlider InputSlider_size_m InputSlider_type_primary"
>
  <div
    class="InputSlider__Input InputSlider__Input_size_m InputSlider__Input_type_primary"
  >
    <div
      class="Input Input_size_m"
    >
      <label
        class="Input__Label"
      >
        <span
          class="Input__LabelText Input__LabelText_size_m"
        >
          <span>
            Стоимость
          </span>
          <strong>
            недвижимости
          </strong>
        </span>
        <input
          class="Input__Input Input__Input_size_m Input__Input_with-label"
          placeholder=""
          value=""
        />
      </label>
      <div
        class="Input__ErrorDetail Input__ErrorDetail_size_m"
      >
        <div
          class="Input__ErrorIcon Input__ErrorIcon_size_m"
        >
          <span
            class="FeatherIcon"
          >
            <svg
              class="feather feather-alert-circle"
              fill="none"
              height="24"
              stroke="currentColor"
              stroke-linecap="round"
              stroke-linejoin="round"
              stroke-width="2"
              viewBox="0 0 24 24"
              width="24"
              xmlns="http://www.w3.org/2000/svg"
            >
              <circle
                cx="12"
                cy="12"
                r="10"
              />
              <line
                x1="12"
                x2="12"
                y1="8"
                y2="12"
              />
              <line
                x1="12"
                x2="12.01"
                y1="16"
                y2="16"
              />
            </svg>
          </span>
        </div>
        <div
          class="Input__Tooltip Input__Tooltip_size_m"
        />
      </div>
    </div>
  </div>
  <div
    class="InputSlider__Slider InputSlider__Slider_size_m Input__Slider_type_primary"
  >
    <div
      class="Slider Slider_size_m Slider_type_primary"
    >
      <div
        class="Slider__Rail Slider__Rail_size_m Slider__Rail_type_primary"
      >
        <div
          class="Slider__Track Slider__Track_size_m Slider__Track_type_primary"
          style="width: 0%;"
        />
      </div>
      <button
        class="Slider__HandleWrapper Slider__HandleWrapper_size_m Slider__HandleWrapper_type_primary"
        style="left: 0%;"
        type="button"
      >
        <span
          class="Slider__Handle Slider__Handle_size_m Slider__Handle_type_primary"
        />
      </button>
    </div>
  </div>
</div>
`;

exports[`Тестирование компонента InputSlider Должен отобразиться InputSlider с label = "Стоимость"  1`] = `
<div
  class="InputSlider InputSlider_size_m InputSlider_type_primary"
>
  <div
    class="InputSlider__Input InputSlider__Input_size_m InputSlider__Input_type_primary"
  >
    <div
      class="Input Input_size_m"
    >
      <label
        class="Input__Label"
      >
        <span
          class="Input__LabelText Input__LabelText_size_m"
        >
          Стоимость
        </span>
        <input
          class="Input__Input Input__Input_size_m Input__Input_with-label"
          placeholder=""
          value=""
        />
      </label>
      <div
        class="Input__ErrorDetail Input__ErrorDetail_size_m"
      >
        <div
          class="Input__ErrorIcon Input__ErrorIcon_size_m"
        >
          <span
            class="FeatherIcon"
          >
            <svg
              class="feather feather-alert-circle"
              fill="none"
              height="24"
              stroke="currentColor"
              stroke-linecap="round"
              stroke-linejoin="round"
              stroke-width="2"
              viewBox="0 0 24 24"
              width="24"
              xmlns="http://www.w3.org/2000/svg"
            >
              <circle
                cx="12"
                cy="12"
                r="10"
              />
              <line
                x1="12"
                x2="12"
                y1="8"
                y2="12"
              />
              <line
                x1="12"
                x2="12.01"
                y1="16"
                y2="16"
              />
            </svg>
          </span>
        </div>
        <div
          class="Input__Tooltip Input__Tooltip_size_m"
        />
      </div>
    </div>
  </div>
  <div
    class="InputSlider__Slider InputSlider__Slider_size_m Input__Slider_type_primary"
  >
    <div
      class="Slider Slider_size_m Slider_type_primary"
    >
      <div
        class="Slider__Rail Slider__Rail_size_m Slider__Rail_type_primary"
      >
        <div
          class="Slider__Track Slider__Track_size_m Slider__Track_type_primary"
          style="width: 0%;"
        />
      </div>
      <button
        class="Slider__HandleWrapper Slider__HandleWrapper_size_m Slider__HandleWrapper_type_primary"
        style="left: 0%;"
        type="button"
      >
        <span
          class="Slider__Handle Slider__Handle_size_m Slider__Handle_type_primary"
        />
      </button>
    </div>
  </div>
</div>
`;

exports[`Тестирование компонента InputSlider Должен отобразиться InputSlider с placeholder = "Введите сумму кредита"  1`] = `
<div
  class="InputSlider InputSlider_size_m InputSlider_type_primary"
>
  <div
    class="InputSlider__Input InputSlider__Input_size_m InputSlider__Input_type_primary"
  >
    <div
      class="Input Input_size_m"
    >
      <label
        class="Input__Label"
      >
        <input
          class="Input__Input Input__Input_size_m"
          placeholder="Введите сумму кредита"
          value=""
        />
      </label>
      <div
        class="Input__ErrorDetail Input__ErrorDetail_size_m"
      >
        <div
          class="Input__ErrorIcon Input__ErrorIcon_size_m"
        >
          <span
            class="FeatherIcon"
          >
            <svg
              class="feather feather-alert-circle"
              fill="none"
              height="24"
              stroke="currentColor"
              stroke-linecap="round"
              stroke-linejoin="round"
              stroke-width="2"
              viewBox="0 0 24 24"
              width="24"
              xmlns="http://www.w3.org/2000/svg"
            >
              <circle
                cx="12"
                cy="12"
                r="10"
              />
              <line
                x1="12"
                x2="12"
                y1="8"
                y2="12"
              />
              <line
                x1="12"
                x2="12.01"
                y1="16"
                y2="16"
              />
            </svg>
          </span>
        </div>
        <div
          class="Input__Tooltip Input__Tooltip_size_m"
        />
      </div>
    </div>
  </div>
  <div
    class="InputSlider__Slider InputSlider__Slider_size_m Input__Slider_type_primary"
  >
    <div
      class="Slider Slider_size_m Slider_type_primary"
    >
      <div
        class="Slider__Rail Slider__Rail_size_m Slider__Rail_type_primary"
      >
        <div
          class="Slider__Track Slider__Track_size_m Slider__Track_type_primary"
          style="width: 0%;"
        />
      </div>
      <button
        class="Slider__HandleWrapper Slider__HandleWrapper_size_m Slider__HandleWrapper_type_primary"
        style="left: 0%;"
        type="button"
      >
        <span
          class="Slider__Handle Slider__Handle_size_m Slider__Handle_type_primary"
        />
      </button>
    </div>
  </div>
</div>
`;

exports[`Тестирование компонента InputSlider Должен отобразиться InputSlider с size = "l"  1`] = `
<div
  class="Input Input_size_l"
>
  <label
    class="Input__Label"
  >
    <input
      class="Input__Input Input__Input_size_l"
      placeholder=""
      value=""
    />
  </label>
  <div
    class="Input__ErrorDetail Input__ErrorDetail_size_l"
  >
    <div
      class="Input__ErrorIcon Input__ErrorIcon_size_l"
    >
      <span
        class="FeatherIcon"
      >
        <svg
          class="feather feather-alert-circle"
          fill="none"
          height="24"
          stroke="currentColor"
          stroke-linecap="round"
          stroke-linejoin="round"
          stroke-width="2"
          viewBox="0 0 24 24"
          width="24"
          xmlns="http://www.w3.org/2000/svg"
        >
          <circle
            cx="12"
            cy="12"
            r="10"
          />
          <line
            x1="12"
            x2="12"
            y1="8"
            y2="12"
          />
          <line
            x1="12"
            x2="12.01"
            y1="16"
            y2="16"
          />
        </svg>
      </span>
    </div>
    <div
      class="Input__Tooltip Input__Tooltip_size_l"
    />
  </div>
</div>
`;

exports[`Тестирование компонента InputSlider Должен отобразиться InputSlider с size = "m"  1`] = `
<div
  class="Input Input_size_m"
>
  <label
    class="Input__Label"
  >
    <input
      class="Input__Input Input__Input_size_m"
      placeholder=""
      value=""
    />
  </label>
  <div
    class="Input__ErrorDetail Input__ErrorDetail_size_m"
  >
    <div
      class="Input__ErrorIcon Input__ErrorIcon_size_m"
    >
      <span
        class="FeatherIcon"
      >
        <svg
          class="feather feather-alert-circle"
          fill="none"
          height="24"
          stroke="currentColor"
          stroke-linecap="round"
          stroke-linejoin="round"
          stroke-width="2"
          viewBox="0 0 24 24"
          width="24"
          xmlns="http://www.w3.org/2000/svg"
        >
          <circle
            cx="12"
            cy="12"
            r="10"
          />
          <line
            x1="12"
            x2="12"
            y1="8"
            y2="12"
          />
          <line
            x1="12"
            x2="12.01"
            y1="16"
            y2="16"
          />
        </svg>
      </span>
    </div>
    <div
      class="Input__Tooltip Input__Tooltip_size_m"
    />
  </div>
</div>
`;

exports[`Тестирование компонента InputSlider Должен отобразиться InputSlider с size = "m" по-умолчанию  1`] = `
<div
  class="Input Input_size_m"
>
  <label
    class="Input__Label"
  >
    <input
      class="Input__Input Input__Input_size_m"
      placeholder=""
      value=""
    />
  </label>
  <div
    class="Input__ErrorDetail Input__ErrorDetail_size_m"
  >
    <div
      class="Input__ErrorIcon Input__ErrorIcon_size_m"
    >
      <span
        class="FeatherIcon"
      >
        <svg
          class="feather feather-alert-circle"
          fill="none"
          height="24"
          stroke="currentColor"
          stroke-linecap="round"
          stroke-linejoin="round"
          stroke-width="2"
          viewBox="0 0 24 24"
          width="24"
          xmlns="http://www.w3.org/2000/svg"
        >
          <circle
            cx="12"
            cy="12"
            r="10"
          />
          <line
            x1="12"
            x2="12"
            y1="8"
            y2="12"
          />
          <line
            x1="12"
            x2="12.01"
            y1="16"
            y2="16"
          />
        </svg>
      </span>
    </div>
    <div
      class="Input__Tooltip Input__Tooltip_size_m"
    />
  </div>
</div>
`;

exports[`Тестирование компонента InputSlider Должен отобразиться InputSlider с size = "s"  1`] = `
<div
  class="Input Input_size_s"
>
  <label
    class="Input__Label"
  >
    <input
      class="Input__Input Input__Input_size_s"
      placeholder=""
      value=""
    />
  </label>
  <div
    class="Input__ErrorDetail Input__ErrorDetail_size_s"
  >
    <div
      class="Input__ErrorIcon Input__ErrorIcon_size_s"
    >
      <span
        class="FeatherIcon"
      >
        <svg
          class="feather feather-alert-circle"
          fill="none"
          height="24"
          stroke="currentColor"
          stroke-linecap="round"
          stroke-linejoin="round"
          stroke-width="2"
          viewBox="0 0 24 24"
          width="24"
          xmlns="http://www.w3.org/2000/svg"
        >
          <circle
            cx="12"
            cy="12"
            r="10"
          />
          <line
            x1="12"
            x2="12"
            y1="8"
            y2="12"
          />
          <line
            x1="12"
            x2="12.01"
            y1="16"
            y2="16"
          />
        </svg>
      </span>
    </div>
    <div
      class="Input__Tooltip Input__Tooltip_size_s"
    />
  </div>
</div>
`;

exports[`Тестирование компонента InputSlider Должен отобразиться InputSlider с классом "InputSlider__Style"  1`] = `
<div
  class="InputSlider InputSlider_size_m InputSlider_type_primary InputSlider__Style"
>
  <div
    class="InputSlider__Input InputSlider__Input_size_m InputSlider__Input_type_primary"
  >
    <div
      class="Input Input_size_m"
    >
      <label
        class="Input__Label"
      >
        <input
          class="Input__Input Input__Input_size_m"
          placeholder=""
          value=""
        />
      </label>
      <div
        class="Input__ErrorDetail Input__ErrorDetail_size_m"
      >
        <div
          class="Input__ErrorIcon Input__ErrorIcon_size_m"
        >
          <span
            class="FeatherIcon"
          >
            <svg
              class="feather feather-alert-circle"
              fill="none"
              height="24"
              stroke="currentColor"
              stroke-linecap="round"
              stroke-linejoin="round"
              stroke-width="2"
              viewBox="0 0 24 24"
              width="24"
              xmlns="http://www.w3.org/2000/svg"
            >
              <circle
                cx="12"
                cy="12"
                r="10"
              />
              <line
                x1="12"
                x2="12"
                y1="8"
                y2="12"
              />
              <line
                x1="12"
                x2="12.01"
                y1="16"
                y2="16"
              />
            </svg>
          </span>
        </div>
        <div
          class="Input__Tooltip Input__Tooltip_size_m"
        />
      </div>
    </div>
  </div>
  <div
    class="InputSlider__Slider InputSlider__Slider_size_m Input__Slider_type_primary"
  >
    <div
      class="Slider Slider_size_m Slider_type_primary"
    >
      <div
        class="Slider__Rail Slider__Rail_size_m Slider__Rail_type_primary"
      >
        <div
          class="Slider__Track Slider__Track_size_m Slider__Track_type_primary"
          style="width: 0%;"
        />
      </div>
      <button
        class="Slider__HandleWrapper Slider__HandleWrapper_size_m Slider__HandleWrapper_type_primary"
        style="left: 0%;"
        type="button"
      >
        <span
          class="Slider__Handle Slider__Handle_size_m Slider__Handle_type_primary"
        />
      </button>
    </div>
  </div>
</div>
`;

exports[`Тестирование компонента InputSlider Должен отобразиться InputSlider с минимальным значением 49 и максимальным 51 1`] = `
<div
  class="InputSlider InputSlider_size_m InputSlider_type_primary"
>
  <div
    class="InputSlider__Input InputSlider__Input_size_m InputSlider__Input_type_primary"
  >
    <div
      class="Input Input_size_m"
    >
      <label
        class="Input__Label"
      >
        <input
          class="Input__Input Input__Input_size_m"
          placeholder=""
          value="50"
        />
      </label>
      <div
        class="Input__ErrorDetail Input__ErrorDetail_size_m"
      >
        <div
          class="Input__ErrorIcon Input__ErrorIcon_size_m"
        >
          <span
            class="FeatherIcon"
          >
            <svg
              class="feather feather-alert-circle"
              fill="none"
              height="24"
              stroke="currentColor"
              stroke-linecap="round"
              stroke-linejoin="round"
              stroke-width="2"
              viewBox="0 0 24 24"
              width="24"
              xmlns="http://www.w3.org/2000/svg"
            >
              <circle
                cx="12"
                cy="12"
                r="10"
              />
              <line
                x1="12"
                x2="12"
                y1="8"
                y2="12"
              />
              <line
                x1="12"
                x2="12.01"
                y1="16"
                y2="16"
              />
            </svg>
          </span>
        </div>
        <div
          class="Input__Tooltip Input__Tooltip_size_m"
        />
      </div>
    </div>
  </div>
  <div
    class="InputSlider__Slider InputSlider__Slider_size_m Input__Slider_type_primary"
  >
    <div
      class="Slider Slider_size_m Slider_type_primary"
    >
      <div
        class="Slider__Rail Slider__Rail_size_m Slider__Rail_type_primary"
      >
        <div
          class="Slider__Track Slider__Track_size_m Slider__Track_type_primary"
          style="width: 50%;"
        />
      </div>
      <button
        class="Slider__HandleWrapper Slider__HandleWrapper_size_m Slider__HandleWrapper_type_primary"
        style="left: 50%;"
        type="button"
      >
        <span
          class="Slider__Handle Slider__Handle_size_m Slider__Handle_type_primary"
        />
      </button>
    </div>
  </div>
</div>
`;

exports[`Тестирование компонента InputSlider Должен отобразиться InputSlider с ошибкой "Данный e-mail не существует" 1`] = `
<div
  class="InputSlider InputSlider_size_m InputSlider_type_primary"
>
  <div
    class="InputSlider__Input InputSlider__Input_size_m InputSlider__Input_type_primary"
  >
    <div
      class="Input Input_size_m"
    >
      <label
        class="Input__Label"
      >
        <span
          class="Input__LabelText Input__LabelText_size_m Input__LabelText_place-top"
        >
          Невалидное поле
        </span>
        <input
          class="Input__Input Input__Input_size_m Input__Input_error Input__Input_with-label"
          placeholder=""
          value="admin@example.com"
        />
      </label>
      <div
        class="Input__Error Input__Error_size_m"
      >
        Данный e-mail не существует
      </div>
      <div
        class="Input__ErrorDetail Input__ErrorDetail_size_m"
      >
        <div
          class="Input__ErrorIcon Input__ErrorIcon_size_m"
        >
          <span
            class="FeatherIcon"
          >
            <svg
              class="feather feather-alert-circle"
              fill="none"
              height="24"
              stroke="currentColor"
              stroke-linecap="round"
              stroke-linejoin="round"
              stroke-width="2"
              viewBox="0 0 24 24"
              width="24"
              xmlns="http://www.w3.org/2000/svg"
            >
              <circle
                cx="12"
                cy="12"
                r="10"
              />
              <line
                x1="12"
                x2="12"
                y1="8"
                y2="12"
              />
              <line
                x1="12"
                x2="12.01"
                y1="16"
                y2="16"
              />
            </svg>
          </span>
        </div>
        <div
          class="Input__Tooltip Input__Tooltip_size_m"
        />
      </div>
    </div>
  </div>
  <div
    class="InputSlider__Slider InputSlider__Slider_size_m Input__Slider_type_primary"
  >
    <div
      class="Slider Slider_size_m Slider_type_primary"
    >
      <div
        class="Slider__Rail Slider__Rail_size_m Slider__Rail_type_primary"
      >
        <div
          class="Slider__Track Slider__Track_size_m Slider__Track_type_primary"
          style="width: 0%;"
        />
      </div>
      <button
        class="Slider__HandleWrapper Slider__HandleWrapper_size_m Slider__HandleWrapper_type_primary"
        style="left: 0%;"
        type="button"
      >
        <span
          class="Slider__Handle Slider__Handle_size_m Slider__Handle_type_primary"
        />
      </button>
    </div>
  </div>
</div>
`;

exports[`Тестирование компонента InputSlider Должен отобразиться InputSlider с форматированным значением согласно маске 999-999 1`] = `
<div
  class="InputSlider InputSlider_size_m InputSlider_type_primary"
>
  <div
    class="InputSlider__Input InputSlider__Input_size_m InputSlider__Input_type_primary"
  >
    <div
      class="Input Input_size_m"
    >
      <label
        class="Input__Label"
      >
        <span
          class="Input__LabelText Input__LabelText_size_m Input__LabelText_place-top"
        >
          Код подразделения
        </span>
        <input
          class="Input__Input Input__Input_size_m Input__Input_with-label"
          placeholder=""
          value="123-456"
        />
      </label>
      <div
        class="Input__ErrorDetail Input__ErrorDetail_size_m"
      >
        <div
          class="Input__ErrorIcon Input__ErrorIcon_size_m"
        >
          <span
            class="FeatherIcon"
          >
            <svg
              class="feather feather-alert-circle"
              fill="none"
              height="24"
              stroke="currentColor"
              stroke-linecap="round"
              stroke-linejoin="round"
              stroke-width="2"
              viewBox="0 0 24 24"
              width="24"
              xmlns="http://www.w3.org/2000/svg"
            >
              <circle
                cx="12"
                cy="12"
                r="10"
              />
              <line
                x1="12"
                x2="12"
                y1="8"
                y2="12"
              />
              <line
                x1="12"
                x2="12.01"
                y1="16"
                y2="16"
              />
            </svg>
          </span>
        </div>
        <div
          class="Input__Tooltip Input__Tooltip_size_m"
        />
      </div>
    </div>
  </div>
  <div
    class="InputSlider__Slider InputSlider__Slider_size_m Input__Slider_type_primary"
  >
    <div
      class="Slider Slider_size_m Slider_type_primary"
    >
      <div
        class="Slider__Rail Slider__Rail_size_m Slider__Rail_type_primary"
      >
        <div
          class="Slider__Track Slider__Track_size_m Slider__Track_type_primary"
          style="width: 100%;"
        />
      </div>
      <button
        class="Slider__HandleWrapper Slider__HandleWrapper_size_m Slider__HandleWrapper_type_primary"
        style="left: 100%;"
        type="button"
      >
        <span
          class="Slider__Handle Slider__Handle_size_m Slider__Handle_type_primary"
        />
      </button>
    </div>
  </div>
</div>
`;

exports[`Тестирование компонента InputSlider Должен отобразиться InputSlider со значением "100" 1`] = `
<div
  class="InputSlider InputSlider_size_m InputSlider_type_primary"
>
  <div
    class="InputSlider__Input InputSlider__Input_size_m InputSlider__Input_type_primary"
  >
    <div
      class="Input Input_size_m"
    >
      <label
        class="Input__Label"
      >
        <span
          class="Input__LabelText Input__LabelText_size_m Input__LabelText_place-top Input__LabelText_focus"
        >
          Стоимость
        </span>
        <input
          class="Input__Input Input__Input_size_m Input__Input_with-label"
          placeholder=""
          value="100"
        />
      </label>
      <div
        class="Input__ErrorDetail Input__ErrorDetail_size_m"
      >
        <div
          class="Input__ErrorIcon Input__ErrorIcon_size_m"
        >
          <span
            class="FeatherIcon"
          >
            <svg
              class="feather feather-alert-circle"
              fill="none"
              height="24"
              stroke="currentColor"
              stroke-linecap="round"
              stroke-linejoin="round"
              stroke-width="2"
              viewBox="0 0 24 24"
              width="24"
              xmlns="http://www.w3.org/2000/svg"
            >
              <circle
                cx="12"
                cy="12"
                r="10"
              />
              <line
                x1="12"
                x2="12"
                y1="8"
                y2="12"
              />
              <line
                x1="12"
                x2="12.01"
                y1="16"
                y2="16"
              />
            </svg>
          </span>
        </div>
        <div
          class="Input__Tooltip Input__Tooltip_size_m"
        />
      </div>
    </div>
  </div>
  <div
    class="InputSlider__Slider InputSlider__Slider_size_m Input__Slider_type_primary"
  >
    <div
      class="Slider Slider_size_m Slider_type_primary"
    >
      <div
        class="Slider__Rail Slider__Rail_size_m Slider__Rail_type_primary"
      >
        <div
          class="Slider__Track Slider__Track_size_m Slider__Track_type_primary"
          style="width: 100%;"
        />
      </div>
      <button
        class="Slider__HandleWrapper Slider__HandleWrapper_size_m Slider__HandleWrapper_type_primary"
        style="left: 100%;"
        type="button"
      >
        <span
          class="Slider__Handle Slider__Handle_size_m Slider__Handle_type_primary"
        />
      </button>
    </div>
  </div>
</div>
`;

exports[`Тестирование компонента InputSlider Должен отобразиться InputSlider со значением "10000" 1`] = `
<div
  class="InputSlider InputSlider_size_m InputSlider_type_primary"
>
  <div
    class="InputSlider__Input InputSlider__Input_size_m InputSlider__Input_type_primary"
  >
    <div
      class="Input Input_size_m"
    >
      <label
        class="Input__Label"
      >
        <span
          class="Input__LabelText Input__LabelText_size_m Input__LabelText_place-top Input__LabelText_focus"
        >
          Стоимость
        </span>
        <input
          class="Input__Input Input__Input_size_m Input__Input_with-label"
          placeholder=""
          value="10000"
        />
      </label>
      <div
        class="Input__ErrorDetail Input__ErrorDetail_size_m"
      >
        <div
          class="Input__ErrorIcon Input__ErrorIcon_size_m"
        >
          <span
            class="FeatherIcon"
          >
            <svg
              class="feather feather-alert-circle"
              fill="none"
              height="24"
              stroke="currentColor"
              stroke-linecap="round"
              stroke-linejoin="round"
              stroke-width="2"
              viewBox="0 0 24 24"
              width="24"
              xmlns="http://www.w3.org/2000/svg"
            >
              <circle
                cx="12"
                cy="12"
                r="10"
              />
              <line
                x1="12"
                x2="12"
                y1="8"
                y2="12"
              />
              <line
                x1="12"
                x2="12.01"
                y1="16"
                y2="16"
              />
            </svg>
          </span>
        </div>
        <div
          class="Input__Tooltip Input__Tooltip_size_m"
        />
      </div>
    </div>
  </div>
  <div
    class="InputSlider__Slider InputSlider__Slider_size_m Input__Slider_type_primary"
  >
    <div
      class="Slider Slider_size_m Slider_type_primary"
    >
      <div
        class="Slider__Rail Slider__Rail_size_m Slider__Rail_type_primary"
      >
        <div
          class="Slider__Track Slider__Track_size_m Slider__Track_type_primary"
          style="width: 100%;"
        />
      </div>
      <button
        class="Slider__HandleWrapper Slider__HandleWrapper_size_m Slider__HandleWrapper_type_primary"
        style="left: 100%;"
        type="button"
      >
        <span
          class="Slider__Handle Slider__Handle_size_m Slider__Handle_type_primary"
        />
      </button>
    </div>
  </div>
</div>
`;

exports[`Тестирование компонента InputSlider Должен отобразиться InputSlider со числовым значением 123  1`] = `
<div
  class="InputSlider InputSlider_size_m InputSlider_type_primary"
>
  <div
    class="InputSlider__Input InputSlider__Input_size_m InputSlider__Input_type_primary"
  >
    <div
      class="Input Input_size_m"
    >
      <label
        class="Input__Label"
      >
        <span
          class="Input__LabelText Input__LabelText_size_m Input__LabelText_place-top"
        >
          Номер
        </span>
        <input
          class="Input__Input Input__Input_size_m Input__Input_with-label"
          placeholder=""
          value="123"
        />
      </label>
      <div
        class="Input__ErrorDetail Input__ErrorDetail_size_m"
      >
        <div
          class="Input__ErrorIcon Input__ErrorIcon_size_m"
        >
          <span
            class="FeatherIcon"
          >
            <svg
              class="feather feather-alert-circle"
              fill="none"
              height="24"
              stroke="currentColor"
              stroke-linecap="round"
              stroke-linejoin="round"
              stroke-width="2"
              viewBox="0 0 24 24"
              width="24"
              xmlns="http://www.w3.org/2000/svg"
            >
              <circle
                cx="12"
                cy="12"
                r="10"
              />
              <line
                x1="12"
                x2="12"
                y1="8"
                y2="12"
              />
              <line
                x1="12"
                x2="12.01"
                y1="16"
                y2="16"
              />
            </svg>
          </span>
        </div>
        <div
          class="Input__Tooltip Input__Tooltip_size_m"
        />
      </div>
    </div>
  </div>
  <div
    class="InputSlider__Slider InputSlider__Slider_size_m Input__Slider_type_primary"
  >
    <div
      class="Slider Slider_size_m Slider_type_primary"
    >
      <div
        class="Slider__Rail Slider__Rail_size_m Slider__Rail_type_primary"
      >
        <div
          class="Slider__Track Slider__Track_size_m Slider__Track_type_primary"
          style="width: 100%;"
        />
      </div>
      <button
        class="Slider__HandleWrapper Slider__HandleWrapper_size_m Slider__HandleWrapper_type_primary"
        style="left: 100%;"
        type="button"
      >
        <span
          class="Slider__Handle Slider__Handle_size_m Slider__Handle_type_primary"
        />
      </button>
    </div>
  </div>
</div>
`;

exports[`Тестирование компонента InputSlider Проверка работы formatValue и parseValue 1`] = `
<div
  class="InputSlider InputSlider_size_m InputSlider_type_primary"
>
  <div
    class="InputSlider__Input InputSlider__Input_size_m InputSlider__Input_type_primary"
  >
    <div
      class="Input Input_size_m"
    >
      <label
        class="Input__Label"
      >
        <span
          class="Input__LabelText Input__LabelText_size_m Input__LabelText_place-top Input__LabelText_focus"
        >
          Стоимость
        </span>
        <input
          class="Input__Input Input__Input_size_m Input__Input_with-label"
          placeholder=""
          value="1 000 000"
        />
      </label>
      <div
        class="Input__ErrorDetail Input__ErrorDetail_size_m"
      >
        <div
          class="Input__ErrorIcon Input__ErrorIcon_size_m"
        >
          <span
            class="FeatherIcon"
          >
            <svg
              class="feather feather-alert-circle"
              fill="none"
              height="24"
              stroke="currentColor"
              stroke-linecap="round"
              stroke-linejoin="round"
              stroke-width="2"
              viewBox="0 0 24 24"
              width="24"
              xmlns="http://www.w3.org/2000/svg"
            >
              <circle
                cx="12"
                cy="12"
                r="10"
              />
              <line
                x1="12"
                x2="12"
                y1="8"
                y2="12"
              />
              <line
                x1="12"
                x2="12.01"
                y1="16"
                y2="16"
              />
            </svg>
          </span>
        </div>
        <div
          class="Input__Tooltip Input__Tooltip_size_m"
        />
      </div>
    </div>
  </div>
  <div
    class="InputSlider__Slider InputSlider__Slider_size_m Input__Slider_type_primary"
  >
    <div
      class="Slider Slider_size_m Slider_type_primary"
    >
      <div
        class="Slider__Rail Slider__Rail_size_m Slider__Rail_type_primary"
      >
        <div
          class="Slider__Track Slider__Track_size_m Slider__Track_type_primary"
          style="width: 100%;"
        />
      </div>
      <button
        class="Slider__HandleWrapper Slider__HandleWrapper_size_m Slider__HandleWrapper_type_primary"
        style="left: 100%;"
        type="button"
      >
        <span
          class="Slider__Handle Slider__Handle_size_m Slider__Handle_type_primary"
        />
      </button>
    </div>
  </div>
</div>
`;
