<svg width="509" height="432" viewBox="0 0 509 432" fill="none" xmlns="http://www.w3.org/2000/svg">
<rect width="509" height="59" fill="#B6B3B3"/>
<path d="M238.797 35H237.289V29.7422H231.555V35H230.055V23.625H231.555V28.5156H237.289V23.625H238.797V35ZM244.742 35.1562C243.596 35.1562 242.664 34.7812 241.945 34.0312C241.227 33.276 240.867 32.2682 240.867 31.0078V30.7422C240.867 29.9036 241.026 29.1562 241.344 28.5C241.667 27.8385 242.115 27.3229 242.688 26.9531C243.266 26.5781 243.891 26.3906 244.562 26.3906C245.661 26.3906 246.516 26.7526 247.125 27.4766C247.734 28.2005 248.039 29.237 248.039 30.5859V31.1875H242.312C242.333 32.0208 242.576 32.6953 243.039 33.2109C243.508 33.7214 244.102 33.9766 244.82 33.9766C245.331 33.9766 245.763 33.8724 246.117 33.6641C246.471 33.4557 246.781 33.1797 247.047 32.8359L247.93 33.5234C247.221 34.612 246.159 35.1562 244.742 35.1562ZM244.562 27.5781C243.979 27.5781 243.49 27.7917 243.094 28.2188C242.698 28.6406 242.453 29.2344 242.359 30H246.594V29.8906C246.552 29.1562 246.354 28.5885 246 28.1875C245.646 27.7812 245.167 27.5781 244.562 27.5781ZM254.938 35C254.854 34.8333 254.786 34.5365 254.734 34.1094C254.062 34.8073 253.26 35.1562 252.328 35.1562C251.495 35.1562 250.81 34.9219 250.273 34.4531C249.742 33.9792 249.477 33.3802 249.477 32.6562C249.477 31.776 249.81 31.0938 250.477 30.6094C251.148 30.1198 252.091 29.875 253.305 29.875H254.711V29.2109C254.711 28.7057 254.56 28.3047 254.258 28.0078C253.956 27.7057 253.51 27.5547 252.922 27.5547C252.406 27.5547 251.974 27.6849 251.625 27.9453C251.276 28.2057 251.102 28.5208 251.102 28.8906H249.648C249.648 28.4688 249.797 28.0625 250.094 27.6719C250.396 27.276 250.802 26.9635 251.312 26.7344C251.828 26.5052 252.393 26.3906 253.008 26.3906C253.982 26.3906 254.745 26.6354 255.297 27.125C255.849 27.6094 256.135 28.2786 256.156 29.1328V33.0234C256.156 33.7995 256.255 34.4167 256.453 34.875V35H254.938ZM252.539 33.8984C252.992 33.8984 253.422 33.7812 253.828 33.5469C254.234 33.3125 254.529 33.0078 254.711 32.6328V30.8984H253.578C251.807 30.8984 250.922 31.4167 250.922 32.4531C250.922 32.9062 251.073 33.2604 251.375 33.5156C251.677 33.7708 252.065 33.8984 252.539 33.8984ZM258.07 30.7031C258.07 29.4062 258.378 28.3646 258.992 27.5781C259.607 26.7865 260.411 26.3906 261.406 26.3906C262.396 26.3906 263.18 26.7292 263.758 27.4062V23H265.203V35H263.875L263.805 34.0938C263.227 34.8021 262.422 35.1562 261.391 35.1562C260.411 35.1562 259.612 34.7552 258.992 33.9531C258.378 33.151 258.07 32.1042 258.07 30.8125V30.7031ZM259.516 30.8672C259.516 31.8255 259.714 32.5755 260.109 33.1172C260.505 33.6589 261.052 33.9297 261.75 33.9297C262.667 33.9297 263.336 33.5182 263.758 32.6953V28.8125C263.326 28.0156 262.661 27.6172 261.766 27.6172C261.057 27.6172 260.505 27.8906 260.109 28.4375C259.714 28.9844 259.516 29.7943 259.516 30.8672ZM270.961 35.1562C269.815 35.1562 268.883 34.7812 268.164 34.0312C267.445 33.276 267.086 32.2682 267.086 31.0078V30.7422C267.086 29.9036 267.245 29.1562 267.562 28.5C267.885 27.8385 268.333 27.3229 268.906 26.9531C269.484 26.5781 270.109 26.3906 270.781 26.3906C271.88 26.3906 272.734 26.7526 273.344 27.4766C273.953 28.2005 274.258 29.237 274.258 30.5859V31.1875H268.531C268.552 32.0208 268.794 32.6953 269.258 33.2109C269.727 33.7214 270.32 33.9766 271.039 33.9766C271.549 33.9766 271.982 33.8724 272.336 33.6641C272.69 33.4557 273 33.1797 273.266 32.8359L274.148 33.5234C273.44 34.612 272.378 35.1562 270.961 35.1562ZM270.781 27.5781C270.198 27.5781 269.708 27.7917 269.312 28.2188C268.917 28.6406 268.672 29.2344 268.578 30H272.812V29.8906C272.771 29.1562 272.573 28.5885 272.219 28.1875C271.865 27.7812 271.385 27.5781 270.781 27.5781ZM280.023 27.8438C279.805 27.8073 279.568 27.7891 279.312 27.7891C278.365 27.7891 277.721 28.1927 277.383 29V35H275.938V26.5469H277.344L277.367 27.5234C277.841 26.7682 278.513 26.3906 279.383 26.3906C279.664 26.3906 279.878 26.4271 280.023 26.5V27.8438Z" fill="black"/>
<rect y="59" width="509" height="332.667" fill="#F2F7FB"/>
<path d="M235.497 227.198C235.357 228.401 234.911 229.331 234.161 229.987C233.417 230.638 232.424 230.963 231.185 230.963C229.841 230.963 228.763 230.482 227.95 229.518C227.143 228.554 226.739 227.265 226.739 225.651V224.557C226.739 223.5 226.927 222.57 227.302 221.768C227.682 220.966 228.219 220.351 228.911 219.924C229.604 219.492 230.406 219.276 231.318 219.276C232.526 219.276 233.495 219.614 234.224 220.291C234.953 220.963 235.377 221.896 235.497 223.088H233.989C233.859 222.182 233.575 221.526 233.138 221.12C232.706 220.713 232.099 220.51 231.318 220.51C230.359 220.51 229.607 220.864 229.06 221.573C228.518 222.281 228.247 223.289 228.247 224.596V225.698C228.247 226.932 228.505 227.914 229.021 228.643C229.536 229.372 230.258 229.737 231.185 229.737C232.018 229.737 232.656 229.549 233.099 229.174C233.547 228.794 233.844 228.135 233.989 227.198H235.497ZM236.943 226.502C236.943 225.674 237.104 224.929 237.427 224.268C237.755 223.607 238.208 223.096 238.786 222.737C239.37 222.377 240.034 222.198 240.778 222.198C241.93 222.198 242.859 222.596 243.568 223.393C244.281 224.19 244.638 225.25 244.638 226.573V226.674C244.638 227.497 244.479 228.237 244.161 228.893C243.849 229.544 243.398 230.052 242.81 230.416C242.226 230.781 241.555 230.963 240.794 230.963C239.648 230.963 238.719 230.565 238.005 229.768C237.297 228.971 236.943 227.916 236.943 226.604V226.502ZM238.396 226.674C238.396 227.612 238.612 228.364 239.044 228.932C239.482 229.5 240.065 229.784 240.794 229.784C241.528 229.784 242.112 229.497 242.544 228.924C242.976 228.346 243.193 227.539 243.193 226.502C243.193 225.575 242.971 224.825 242.528 224.252C242.091 223.674 241.508 223.385 240.778 223.385C240.065 223.385 239.489 223.669 239.052 224.237C238.614 224.804 238.396 225.617 238.396 226.674ZM247.818 222.354L247.864 223.416C248.51 222.604 249.354 222.198 250.396 222.198C252.182 222.198 253.083 223.206 253.099 225.221V230.807H251.653V225.213C251.648 224.604 251.508 224.153 251.232 223.862C250.961 223.57 250.536 223.424 249.958 223.424C249.489 223.424 249.078 223.549 248.724 223.799C248.37 224.049 248.094 224.377 247.896 224.784V230.807H246.45V222.354H247.818ZM257.239 220.307V222.354H258.818V223.471H257.239V228.713C257.239 229.052 257.31 229.307 257.45 229.479C257.591 229.646 257.831 229.729 258.169 229.729C258.336 229.729 258.565 229.698 258.857 229.635V230.807C258.476 230.911 258.107 230.963 257.747 230.963C257.101 230.963 256.614 230.768 256.286 230.377C255.958 229.987 255.794 229.432 255.794 228.713V223.471H254.255V222.354H255.794V220.307H257.239ZM264.021 230.963C262.875 230.963 261.943 230.588 261.224 229.838C260.505 229.083 260.146 228.075 260.146 226.815V226.549C260.146 225.711 260.305 224.963 260.622 224.307C260.945 223.646 261.393 223.13 261.966 222.76C262.544 222.385 263.169 222.198 263.841 222.198C264.94 222.198 265.794 222.56 266.403 223.284C267.013 224.008 267.318 225.044 267.318 226.393V226.995H261.591C261.612 227.828 261.854 228.502 262.318 229.018C262.786 229.528 263.38 229.784 264.099 229.784C264.609 229.784 265.042 229.679 265.396 229.471C265.75 229.263 266.06 228.987 266.325 228.643L267.208 229.331C266.5 230.419 265.437 230.963 264.021 230.963ZM263.841 223.385C263.258 223.385 262.768 223.599 262.372 224.026C261.976 224.448 261.732 225.041 261.638 225.807H265.872V225.698C265.831 224.963 265.633 224.396 265.278 223.995C264.924 223.588 264.445 223.385 263.841 223.385ZM270.364 222.354L270.411 223.416C271.057 222.604 271.901 222.198 272.943 222.198C274.729 222.198 275.63 223.206 275.646 225.221V230.807H274.2V225.213C274.195 224.604 274.055 224.153 273.778 223.862C273.508 223.57 273.083 223.424 272.505 223.424C272.036 223.424 271.625 223.549 271.271 223.799C270.917 224.049 270.64 224.377 270.443 224.784V230.807H268.997V222.354H270.364ZM279.786 220.307V222.354H281.364V223.471H279.786V228.713C279.786 229.052 279.857 229.307 279.997 229.479C280.138 229.646 280.377 229.729 280.716 229.729C280.883 229.729 281.112 229.698 281.403 229.635V230.807C281.023 230.911 280.653 230.963 280.294 230.963C279.648 230.963 279.161 230.768 278.833 230.377C278.505 229.987 278.341 229.432 278.341 228.713V223.471H276.802V222.354H278.341V220.307H279.786Z" fill="black"/>
<path d="M0 391.667H508V432H0V391.667Z" fill="#848484"/>
<path d="M238.348 412.407H233.575V417.431H232.075V406.056H239.121V407.29H233.575V411.181H238.348V412.407ZM240.137 413.126C240.137 412.298 240.298 411.553 240.621 410.891C240.95 410.23 241.403 409.72 241.981 409.36C242.564 409.001 243.228 408.821 243.973 408.821C245.124 408.821 246.054 409.22 246.762 410.016C247.476 410.813 247.832 411.873 247.832 413.196V413.298C247.832 414.121 247.673 414.86 247.356 415.516C247.043 416.168 246.593 416.675 246.004 417.04C245.421 417.405 244.749 417.587 243.989 417.587C242.843 417.587 241.913 417.188 241.2 416.391C240.491 415.595 240.137 414.54 240.137 413.227V413.126ZM241.59 413.298C241.59 414.235 241.806 414.988 242.239 415.556C242.676 416.123 243.259 416.407 243.989 416.407C244.723 416.407 245.306 416.121 245.739 415.548C246.171 414.97 246.387 414.162 246.387 413.126C246.387 412.199 246.166 411.449 245.723 410.876C245.285 410.298 244.702 410.009 243.973 410.009C243.259 410.009 242.684 410.293 242.246 410.86C241.809 411.428 241.59 412.24 241.59 413.298ZM249.262 413.126C249.262 412.298 249.423 411.553 249.746 410.891C250.075 410.23 250.528 409.72 251.106 409.36C251.689 409.001 252.353 408.821 253.098 408.821C254.249 408.821 255.179 409.22 255.887 410.016C256.601 410.813 256.957 411.873 256.957 413.196V413.298C256.957 414.121 256.798 414.86 256.481 415.516C256.168 416.168 255.718 416.675 255.129 417.04C254.546 417.405 253.874 417.587 253.114 417.587C251.968 417.587 251.038 417.188 250.325 416.391C249.616 415.595 249.262 414.54 249.262 413.227V413.126ZM250.715 413.298C250.715 414.235 250.931 414.988 251.364 415.556C251.801 416.123 252.384 416.407 253.114 416.407C253.848 416.407 254.431 416.121 254.864 415.548C255.296 414.97 255.512 414.162 255.512 413.126C255.512 412.199 255.291 411.449 254.848 410.876C254.41 410.298 253.827 410.009 253.098 410.009C252.384 410.009 251.809 410.293 251.371 410.86C250.934 411.428 250.715 412.24 250.715 413.298ZM260.731 406.931V408.977H262.309V410.095H260.731V415.337C260.731 415.675 260.801 415.931 260.942 416.102C261.082 416.269 261.322 416.352 261.66 416.352C261.827 416.352 262.056 416.321 262.348 416.259V417.431C261.968 417.535 261.598 417.587 261.239 417.587C260.593 417.587 260.106 417.391 259.778 417.001C259.45 416.61 259.285 416.056 259.285 415.337V410.095H257.746V408.977H259.285V406.931H260.731ZM267.512 417.587C266.366 417.587 265.434 417.212 264.715 416.462C263.996 415.707 263.637 414.699 263.637 413.438V413.173C263.637 412.334 263.796 411.587 264.114 410.931C264.436 410.269 264.884 409.753 265.457 409.384C266.035 409.009 266.66 408.821 267.332 408.821C268.431 408.821 269.285 409.183 269.895 409.907C270.504 410.631 270.809 411.668 270.809 413.016V413.618H265.082C265.103 414.451 265.345 415.126 265.809 415.641C266.278 416.152 266.871 416.407 267.59 416.407C268.101 416.407 268.533 416.303 268.887 416.095C269.241 415.886 269.551 415.61 269.817 415.266L270.7 415.954C269.991 417.043 268.929 417.587 267.512 417.587ZM267.332 410.009C266.749 410.009 266.259 410.222 265.864 410.649C265.468 411.071 265.223 411.665 265.129 412.431H269.364V412.321C269.322 411.587 269.124 411.019 268.77 410.618C268.416 410.212 267.936 410.009 267.332 410.009ZM276.575 410.274C276.356 410.238 276.119 410.22 275.864 410.22C274.916 410.22 274.272 410.623 273.934 411.431V417.431H272.489V408.977H273.895L273.918 409.954C274.392 409.199 275.064 408.821 275.934 408.821C276.215 408.821 276.429 408.858 276.575 408.931V410.274Z" fill="white"/>
</svg>
