<svg width="509" height="436" viewBox="0 0 509 436" fill="none" xmlns="http://www.w3.org/2000/svg">
<rect x="392" y="62" width="117" height="374" fill="#74747D"/>
<path d="M427.766 250.393C426.479 250.024 425.542 249.57 424.953 249.034C424.37 248.492 424.078 247.826 424.078 247.034C424.078 246.138 424.435 245.399 425.148 244.815C425.867 244.227 426.8 243.932 427.945 243.932C428.727 243.932 429.422 244.083 430.031 244.385C430.646 244.688 431.12 245.104 431.453 245.635C431.792 246.167 431.961 246.747 431.961 247.378H430.453C430.453 246.69 430.234 246.151 429.797 245.76C429.359 245.365 428.742 245.167 427.945 245.167C427.206 245.167 426.628 245.331 426.211 245.659C425.8 245.982 425.594 246.432 425.594 247.01C425.594 247.474 425.789 247.867 426.18 248.19C426.576 248.508 427.245 248.8 428.188 249.065C429.135 249.331 429.875 249.625 430.406 249.948C430.943 250.266 431.339 250.638 431.594 251.065C431.854 251.492 431.984 251.995 431.984 252.573C431.984 253.495 431.625 254.234 430.906 254.792C430.188 255.344 429.227 255.62 428.023 255.62C427.242 255.62 426.513 255.471 425.836 255.175C425.159 254.872 424.635 254.461 424.266 253.94C423.901 253.419 423.719 252.828 423.719 252.167H425.227C425.227 252.854 425.479 253.399 425.984 253.8C426.495 254.195 427.175 254.393 428.023 254.393C428.815 254.393 429.422 254.232 429.844 253.909C430.266 253.586 430.477 253.146 430.477 252.589C430.477 252.031 430.281 251.602 429.891 251.3C429.5 250.992 428.792 250.69 427.766 250.393ZM435.258 255.464H433.813V247.01H435.258V255.464ZM433.695 244.768C433.695 244.534 433.766 244.336 433.906 244.175C434.052 244.013 434.266 243.932 434.547 243.932C434.828 243.932 435.042 244.013 435.188 244.175C435.333 244.336 435.406 244.534 435.406 244.768C435.406 245.003 435.333 245.198 435.188 245.354C435.042 245.51 434.828 245.589 434.547 245.589C434.266 245.589 434.052 245.51 433.906 245.354C433.766 245.198 433.695 245.003 433.695 244.768ZM437.227 251.167C437.227 249.87 437.534 248.828 438.148 248.042C438.763 247.25 439.568 246.854 440.563 246.854C441.552 246.854 442.336 247.193 442.914 247.87V243.464H444.359V255.464H443.031L442.961 254.557C442.383 255.266 441.578 255.62 440.547 255.62C439.568 255.62 438.768 255.219 438.148 254.417C437.534 253.615 437.227 252.568 437.227 251.276V251.167ZM438.672 251.331C438.672 252.289 438.87 253.039 439.266 253.581C439.661 254.122 440.208 254.393 440.906 254.393C441.823 254.393 442.492 253.982 442.914 253.159V249.276C442.482 248.479 441.818 248.081 440.922 248.081C440.214 248.081 439.661 248.354 439.266 248.901C438.87 249.448 438.672 250.258 438.672 251.331ZM450.117 255.62C448.971 255.62 448.039 255.245 447.32 254.495C446.602 253.74 446.242 252.732 446.242 251.471V251.206C446.242 250.367 446.401 249.62 446.719 248.964C447.042 248.302 447.49 247.787 448.063 247.417C448.641 247.042 449.266 246.854 449.938 246.854C451.036 246.854 451.891 247.216 452.5 247.94C453.109 248.664 453.414 249.701 453.414 251.05V251.651H447.688C447.708 252.484 447.951 253.159 448.414 253.675C448.883 254.185 449.477 254.44 450.195 254.44C450.706 254.44 451.138 254.336 451.492 254.128C451.846 253.919 452.156 253.643 452.422 253.3L453.305 253.987C452.596 255.076 451.534 255.62 450.117 255.62ZM449.938 248.042C449.354 248.042 448.865 248.255 448.469 248.682C448.073 249.104 447.828 249.698 447.734 250.464H451.969V250.354C451.927 249.62 451.729 249.052 451.375 248.651C451.021 248.245 450.542 248.042 449.938 248.042ZM462.25 251.331C462.25 252.622 461.953 253.662 461.359 254.448C460.766 255.229 459.969 255.62 458.969 255.62C457.901 255.62 457.076 255.242 456.492 254.487L456.422 255.464H455.094V243.464H456.539V247.94C457.122 247.216 457.927 246.854 458.953 246.854C459.979 246.854 460.784 247.242 461.367 248.018C461.956 248.794 462.25 249.857 462.25 251.206V251.331ZM460.805 251.167C460.805 250.182 460.615 249.422 460.234 248.885C459.854 248.349 459.307 248.081 458.594 248.081C457.641 248.081 456.956 248.524 456.539 249.409V253.065C456.982 253.951 457.672 254.393 458.609 254.393C459.302 254.393 459.841 254.125 460.227 253.589C460.612 253.052 460.805 252.245 460.805 251.167ZM469.297 255.464C469.214 255.297 469.146 255 469.094 254.573C468.422 255.271 467.62 255.62 466.688 255.62C465.854 255.62 465.169 255.385 464.633 254.917C464.102 254.443 463.836 253.844 463.836 253.12C463.836 252.24 464.169 251.557 464.836 251.073C465.508 250.583 466.451 250.339 467.664 250.339H469.07V249.675C469.07 249.169 468.919 248.768 468.617 248.471C468.315 248.169 467.87 248.018 467.281 248.018C466.766 248.018 466.333 248.149 465.984 248.409C465.635 248.669 465.461 248.984 465.461 249.354H464.008C464.008 248.932 464.156 248.526 464.453 248.135C464.755 247.74 465.161 247.427 465.672 247.198C466.188 246.969 466.753 246.854 467.367 246.854C468.341 246.854 469.104 247.099 469.656 247.589C470.208 248.073 470.495 248.742 470.516 249.596V253.487C470.516 254.263 470.615 254.88 470.813 255.339V255.464H469.297ZM466.898 254.362C467.352 254.362 467.781 254.245 468.188 254.01C468.594 253.776 468.888 253.471 469.07 253.096V251.362H467.938C466.167 251.362 465.281 251.88 465.281 252.917C465.281 253.37 465.432 253.724 465.734 253.979C466.036 254.234 466.425 254.362 466.898 254.362ZM476.867 248.307C476.648 248.271 476.411 248.253 476.156 248.253C475.208 248.253 474.565 248.656 474.227 249.464V255.464H472.781V247.01H474.188L474.211 247.987C474.685 247.232 475.357 246.854 476.227 246.854C476.508 246.854 476.721 246.891 476.867 246.964V248.307Z" fill="white"/>
<rect y="62" width="392" height="325" fill="#F2F7FB"/>
<path d="M177.138 225.929C176.997 227.133 176.552 228.062 175.802 228.719C175.057 229.37 174.065 229.695 172.826 229.695C171.482 229.695 170.404 229.213 169.591 228.25C168.784 227.286 168.38 225.997 168.38 224.383V223.289C168.38 222.232 168.568 221.302 168.943 220.5C169.323 219.698 169.859 219.083 170.552 218.656C171.245 218.224 172.047 218.008 172.958 218.008C174.167 218.008 175.135 218.346 175.865 219.023C176.594 219.695 177.018 220.627 177.138 221.82H175.63C175.5 220.914 175.216 220.258 174.779 219.851C174.346 219.445 173.74 219.242 172.958 219.242C172 219.242 171.247 219.596 170.701 220.304C170.159 221.013 169.888 222.021 169.888 223.328V224.429C169.888 225.664 170.146 226.646 170.661 227.375C171.177 228.104 171.898 228.469 172.826 228.469C173.659 228.469 174.297 228.281 174.74 227.906C175.187 227.526 175.484 226.867 175.63 225.929H177.138ZM178.583 225.234C178.583 224.406 178.745 223.661 179.068 223C179.396 222.338 179.849 221.828 180.427 221.469C181.01 221.109 181.674 220.929 182.419 220.929C183.57 220.929 184.5 221.328 185.208 222.125C185.922 222.922 186.279 223.982 186.279 225.304V225.406C186.279 226.229 186.12 226.969 185.802 227.625C185.49 228.276 185.039 228.784 184.451 229.148C183.867 229.513 183.195 229.695 182.435 229.695C181.289 229.695 180.359 229.297 179.646 228.5C178.937 227.703 178.583 226.648 178.583 225.336V225.234ZM180.036 225.406C180.036 226.344 180.253 227.096 180.685 227.664C181.122 228.232 181.706 228.515 182.435 228.515C183.169 228.515 183.753 228.229 184.185 227.656C184.617 227.078 184.833 226.271 184.833 225.234C184.833 224.307 184.612 223.557 184.169 222.984C183.732 222.406 183.148 222.117 182.419 222.117C181.706 222.117 181.13 222.401 180.693 222.969C180.255 223.536 180.036 224.349 180.036 225.406ZM189.458 221.086L189.505 222.148C190.151 221.336 190.995 220.929 192.036 220.929C193.823 220.929 194.724 221.937 194.74 223.953V229.539H193.294V223.945C193.289 223.336 193.148 222.885 192.872 222.594C192.602 222.302 192.177 222.156 191.599 222.156C191.13 222.156 190.719 222.281 190.365 222.531C190.01 222.781 189.734 223.109 189.536 223.515V229.539H188.091V221.086H189.458ZM198.88 219.039V221.086H200.458V222.203H198.88V227.445C198.88 227.784 198.951 228.039 199.091 228.211C199.232 228.377 199.471 228.461 199.81 228.461C199.977 228.461 200.206 228.429 200.497 228.367V229.539C200.117 229.643 199.747 229.695 199.388 229.695C198.742 229.695 198.255 229.5 197.927 229.109C197.599 228.719 197.435 228.164 197.435 227.445V222.203H195.896V221.086H197.435V219.039H198.88ZM205.661 229.695C204.516 229.695 203.583 229.32 202.865 228.57C202.146 227.815 201.786 226.807 201.786 225.547V225.281C201.786 224.442 201.945 223.695 202.263 223.039C202.586 222.377 203.034 221.862 203.607 221.492C204.185 221.117 204.81 220.929 205.482 220.929C206.581 220.929 207.435 221.291 208.044 222.015C208.654 222.739 208.958 223.776 208.958 225.125V225.726H203.232C203.253 226.56 203.495 227.234 203.958 227.75C204.427 228.26 205.021 228.515 205.74 228.515C206.25 228.515 206.682 228.411 207.036 228.203C207.391 227.995 207.701 227.719 207.966 227.375L208.849 228.062C208.141 229.151 207.078 229.695 205.661 229.695ZM205.482 222.117C204.898 222.117 204.409 222.33 204.013 222.758C203.617 223.179 203.372 223.773 203.279 224.539H207.513V224.429C207.471 223.695 207.273 223.127 206.919 222.726C206.565 222.32 206.086 222.117 205.482 222.117ZM212.005 221.086L212.052 222.148C212.698 221.336 213.542 220.929 214.583 220.929C216.37 220.929 217.271 221.937 217.286 223.953V229.539H215.841V223.945C215.836 223.336 215.695 222.885 215.419 222.594C215.148 222.302 214.724 222.156 214.146 222.156C213.677 222.156 213.266 222.281 212.911 222.531C212.557 222.781 212.281 223.109 212.083 223.515V229.539H210.638V221.086H212.005ZM221.427 219.039V221.086H223.005V222.203H221.427V227.445C221.427 227.784 221.497 228.039 221.638 228.211C221.779 228.377 222.018 228.461 222.357 228.461C222.523 228.461 222.753 228.429 223.044 228.367V229.539C222.664 229.643 222.294 229.695 221.935 229.695C221.289 229.695 220.802 229.5 220.474 229.109C220.146 228.719 219.982 228.164 219.982 227.445V222.203H218.443V221.086H219.982V219.039H221.427Z" fill="black"/>
<rect width="509" height="62" fill="#B6B3B3"/>
<path d="M238.797 36.8135H237.289V31.5557H231.555V36.8135H230.055V25.4385H231.555V30.3291H237.289V25.4385H238.797V36.8135ZM244.742 36.9697C243.596 36.9697 242.664 36.5947 241.945 35.8447C241.226 35.0895 240.867 34.0817 240.867 32.8213V32.5557C240.867 31.7171 241.026 30.9697 241.344 30.3135C241.667 29.652 242.114 29.1364 242.687 28.7666C243.265 28.3916 243.89 28.2041 244.562 28.2041C245.661 28.2041 246.515 28.5661 247.125 29.29C247.734 30.014 248.039 31.0505 248.039 32.3994V33.001H242.312C242.333 33.8343 242.575 34.5088 243.039 35.0244C243.508 35.5348 244.101 35.79 244.82 35.79C245.331 35.79 245.763 35.6859 246.117 35.4775C246.471 35.2692 246.781 34.9932 247.047 34.6494L247.93 35.3369C247.221 36.4255 246.159 36.9697 244.742 36.9697ZM244.562 29.3916C243.979 29.3916 243.489 29.6051 243.094 30.0322C242.698 30.4541 242.453 31.0479 242.359 31.8135H246.594V31.7041C246.552 30.9697 246.354 30.402 246 30.001C245.646 29.5947 245.167 29.3916 244.562 29.3916ZM254.937 36.8135C254.854 36.6468 254.786 36.3499 254.734 35.9229C254.062 36.6208 253.26 36.9697 252.328 36.9697C251.495 36.9697 250.81 36.7354 250.273 36.2666C249.742 35.7926 249.476 35.1937 249.476 34.4697C249.476 33.5895 249.81 32.9072 250.476 32.4229C251.148 31.9333 252.091 31.6885 253.305 31.6885H254.711V31.0244C254.711 30.5192 254.56 30.1182 254.258 29.8213C253.956 29.5192 253.51 29.3682 252.922 29.3682C252.406 29.3682 251.974 29.4984 251.625 29.7588C251.276 30.0192 251.101 30.3343 251.101 30.7041H249.648C249.648 30.2822 249.797 29.876 250.094 29.4854C250.396 29.0895 250.802 28.777 251.312 28.5479C251.828 28.3187 252.393 28.2041 253.008 28.2041C253.982 28.2041 254.745 28.4489 255.297 28.9385C255.849 29.4229 256.135 30.0921 256.156 30.9463V34.8369C256.156 35.613 256.255 36.2301 256.453 36.6885V36.8135H254.937ZM252.539 35.7119C252.992 35.7119 253.422 35.5947 253.828 35.3604C254.234 35.126 254.529 34.8213 254.711 34.4463V32.7119H253.578C251.807 32.7119 250.922 33.2301 250.922 34.2666C250.922 34.7197 251.073 35.0739 251.375 35.3291C251.677 35.5843 252.065 35.7119 252.539 35.7119ZM258.07 32.5166C258.07 31.2197 258.377 30.1781 258.992 29.3916C259.607 28.5999 260.411 28.2041 261.406 28.2041C262.396 28.2041 263.18 28.5426 263.758 29.2197V24.8135H265.203V36.8135H263.875L263.805 35.9072C263.226 36.6156 262.422 36.9697 261.39 36.9697C260.411 36.9697 259.612 36.5687 258.992 35.7666C258.377 34.9645 258.07 33.9176 258.07 32.626V32.5166ZM259.515 32.6807C259.515 33.639 259.713 34.389 260.109 34.9307C260.505 35.4723 261.052 35.7432 261.75 35.7432C262.667 35.7432 263.336 35.3317 263.758 34.5088V30.626C263.325 29.8291 262.661 29.4307 261.765 29.4307C261.057 29.4307 260.505 29.7041 260.109 30.251C259.713 30.7979 259.515 31.6077 259.515 32.6807ZM270.961 36.9697C269.815 36.9697 268.883 36.5947 268.164 35.8447C267.445 35.0895 267.086 34.0817 267.086 32.8213V32.5557C267.086 31.7171 267.245 30.9697 267.562 30.3135C267.885 29.652 268.333 29.1364 268.906 28.7666C269.484 28.3916 270.109 28.2041 270.781 28.2041C271.88 28.2041 272.734 28.5661 273.344 29.29C273.953 30.014 274.258 31.0505 274.258 32.3994V33.001H268.531C268.552 33.8343 268.794 34.5088 269.258 35.0244C269.726 35.5348 270.32 35.79 271.039 35.79C271.549 35.79 271.982 35.6859 272.336 35.4775C272.69 35.2692 273 34.9932 273.266 34.6494L274.148 35.3369C273.44 36.4255 272.377 36.9697 270.961 36.9697ZM270.781 29.3916C270.198 29.3916 269.708 29.6051 269.312 30.0322C268.917 30.4541 268.672 31.0479 268.578 31.8135H272.812V31.7041C272.771 30.9697 272.573 30.402 272.219 30.001C271.864 29.5947 271.385 29.3916 270.781 29.3916ZM280.023 29.6572C279.805 29.6208 279.568 29.6025 279.312 29.6025C278.364 29.6025 277.721 30.0062 277.383 30.8135V36.8135H275.937V28.3604H277.344L277.367 29.3369C277.841 28.5817 278.513 28.2041 279.383 28.2041C279.664 28.2041 279.877 28.2406 280.023 28.3135V29.6572Z" fill="black"/>
<path d="M0 387H392V436H0V387Z" fill="#848484"/>
<path d="M180.397 412.268H175.624V417.292H174.124V405.917H181.17V407.151H175.624V411.042H180.397V412.268ZM182.186 412.987C182.186 412.159 182.348 411.414 182.67 410.753C182.999 410.091 183.452 409.581 184.03 409.221C184.613 408.862 185.277 408.682 186.022 408.682C187.173 408.682 188.103 409.081 188.811 409.878C189.525 410.675 189.881 411.734 189.881 413.057V413.159C189.881 413.982 189.723 414.721 189.405 415.378C189.092 416.029 188.642 416.537 188.053 416.901C187.47 417.266 186.798 417.448 186.038 417.448C184.892 417.448 183.962 417.05 183.249 416.253C182.54 415.456 182.186 414.401 182.186 413.089V412.987ZM183.639 413.159C183.639 414.096 183.855 414.849 184.288 415.417C184.725 415.984 185.309 416.268 186.038 416.268C186.772 416.268 187.355 415.982 187.788 415.409C188.22 414.831 188.436 414.024 188.436 412.987C188.436 412.06 188.215 411.31 187.772 410.737C187.335 410.159 186.751 409.87 186.022 409.87C185.309 409.87 184.733 410.154 184.295 410.721C183.858 411.289 183.639 412.102 183.639 413.159ZM191.311 412.987C191.311 412.159 191.473 411.414 191.795 410.753C192.124 410.091 192.577 409.581 193.155 409.221C193.738 408.862 194.402 408.682 195.147 408.682C196.298 408.682 197.228 409.081 197.936 409.878C198.65 410.675 199.006 411.734 199.006 413.057V413.159C199.006 413.982 198.848 414.721 198.53 415.378C198.217 416.029 197.767 416.537 197.178 416.901C196.595 417.266 195.923 417.448 195.163 417.448C194.017 417.448 193.087 417.05 192.374 416.253C191.665 415.456 191.311 414.401 191.311 413.089V412.987ZM192.764 413.159C192.764 414.096 192.98 414.849 193.413 415.417C193.85 415.984 194.434 416.268 195.163 416.268C195.897 416.268 196.48 415.982 196.913 415.409C197.345 414.831 197.561 414.024 197.561 412.987C197.561 412.06 197.34 411.31 196.897 410.737C196.46 410.159 195.876 409.87 195.147 409.87C194.434 409.87 193.858 410.154 193.42 410.721C192.983 411.289 192.764 412.102 192.764 413.159ZM202.78 406.792V408.839H204.358V409.956H202.78V415.198C202.78 415.537 202.85 415.792 202.991 415.964C203.131 416.13 203.371 416.214 203.71 416.214C203.876 416.214 204.105 416.182 204.397 416.12V417.292C204.017 417.396 203.647 417.448 203.288 417.448C202.642 417.448 202.155 417.253 201.827 416.862C201.499 416.471 201.335 415.917 201.335 415.198V409.956H199.795V408.839H201.335V406.792H202.78ZM209.561 417.448C208.415 417.448 207.483 417.073 206.764 416.323C206.045 415.568 205.686 414.56 205.686 413.3V413.034C205.686 412.195 205.845 411.448 206.163 410.792C206.486 410.13 206.934 409.615 207.506 409.245C208.085 408.87 208.71 408.682 209.381 408.682C210.48 408.682 211.335 409.044 211.944 409.768C212.553 410.492 212.858 411.529 212.858 412.878V413.479H207.131C207.152 414.313 207.394 414.987 207.858 415.503C208.327 416.013 208.92 416.268 209.639 416.268C210.15 416.268 210.582 416.164 210.936 415.956C211.29 415.747 211.6 415.471 211.866 415.128L212.749 415.815C212.04 416.904 210.978 417.448 209.561 417.448ZM209.381 409.87C208.798 409.87 208.309 410.083 207.913 410.51C207.517 410.932 207.272 411.526 207.178 412.292H211.413V412.182C211.371 411.448 211.173 410.88 210.819 410.479C210.465 410.073 209.986 409.87 209.381 409.87ZM218.624 410.135C218.405 410.099 218.168 410.081 217.913 410.081C216.965 410.081 216.322 410.484 215.983 411.292V417.292H214.538V408.839H215.944L215.967 409.815C216.441 409.06 217.113 408.682 217.983 408.682C218.264 408.682 218.478 408.719 218.624 408.792V410.135Z" fill="white"/>
</svg>
