// Jest Snapshot v1, https://goo.gl/fbAQLP

exports[`Тестирование компонента SelectBox Должен отобразиться SelectBox 1`] = `
<div
  class="SelectBox SelectBox_size_m"
>
  <div
    class="SelectBox__Icon SelectBox__Icon_size_m"
  >
    <span
      class="FeatherIcon"
    >
      <svg
        class="feather feather-code"
        fill="none"
        height="24"
        stroke="currentColor"
        stroke-linecap="round"
        stroke-linejoin="round"
        stroke-width="2"
        viewBox="0 0 24 24"
        width="24"
        xmlns="http://www.w3.org/2000/svg"
      >
        <polyline
          points="16 18 22 12 16 6"
        />
        <polyline
          points="8 6 2 12 8 18"
        />
      </svg>
    </span>
  </div>
  <div
    class="SelectBox__Input SelectBox__Input_size_m"
  >
    <div
      class="Input Input_size_m"
    >
      <label
        class="Input__Label"
      >
        <input
          class="Input__Input Input__Input_size_m Input__Input_readonly"
          placeholder=""
          readonly=""
          value=""
        />
      </label>
      <div
        class="Input__ErrorDetail Input__ErrorDetail_size_m"
      >
        <div
          class="Input__ErrorIcon Input__ErrorIcon_size_m"
        >
          <span
            class="FeatherIcon"
          >
            <svg
              class="feather feather-alert-circle"
              fill="none"
              height="24"
              stroke="currentColor"
              stroke-linecap="round"
              stroke-linejoin="round"
              stroke-width="2"
              viewBox="0 0 24 24"
              width="24"
              xmlns="http://www.w3.org/2000/svg"
            >
              <circle
                cx="12"
                cy="12"
                r="10"
              />
              <line
                x1="12"
                x2="12"
                y1="8"
                y2="12"
              />
              <line
                x1="12"
                x2="12.01"
                y1="16"
                y2="16"
              />
            </svg>
          </span>
        </div>
        <div
          class="Input__Tooltip Input__Tooltip_size_m"
        />
      </div>
    </div>
  </div>
  <div
    class="SelectBox__SuggestWrapper SelectBox__SuggestWrapper_size_m"
  >
    <div
      class="SelectBox__Suggest SelectBox__Suggest_size_m"
    >
      <div
        class="SelectBox__NotFound SelectBox__NotFound_size_m"
      >
        Совпадений не найдено
      </div>
    </div>
  </div>
</div>
`;

exports[`Тестирование компонента SelectBox Должен отобразиться SelectBox c mask 1`] = `
<input
  class="Input__Input Input__Input_size_m Input__Input_readonly"
  placeholder=""
  readonly=""
  value="+7 ("
/>
`;

exports[`Тестирование компонента SelectBox Должен отобразиться SelectBox c value = {109} 1`] = `
<input
  class="Input__Input Input__Input_size_m Input__Input_readonly"
  placeholder="Афганистан"
  readonly=""
  value="Афганистан"
/>
`;

exports[`Тестирование компонента SelectBox Должен отобразиться SelectBox co свойством isSuggestWrapperVisible 1`] = `
<div
  class="SelectBox SelectBox_size_m"
>
  <div
    class="SelectBox__Icon SelectBox__Icon_size_m SelectBox__Icon_suggest_visible"
  >
    <span
      class="FeatherIcon"
    >
      <svg
        class="feather feather-code"
        fill="none"
        height="24"
        stroke="currentColor"
        stroke-linecap="round"
        stroke-linejoin="round"
        stroke-width="2"
        viewBox="0 0 24 24"
        width="24"
        xmlns="http://www.w3.org/2000/svg"
      >
        <polyline
          points="16 18 22 12 16 6"
        />
        <polyline
          points="8 6 2 12 8 18"
        />
      </svg>
    </span>
  </div>
  <div
    class="SelectBox__Input SelectBox__Input_size_m"
  >
    <div
      class="Input Input_size_m"
    >
      <label
        class="Input__Label"
      >
        <input
          class="Input__Input Input__Input_size_m Input__Input_readonly"
          placeholder=""
          readonly=""
          value=""
        />
      </label>
      <div
        class="Input__ErrorDetail Input__ErrorDetail_size_m"
      >
        <div
          class="Input__ErrorIcon Input__ErrorIcon_size_m"
        >
          <span
            class="FeatherIcon"
          >
            <svg
              class="feather feather-alert-circle"
              fill="none"
              height="24"
              stroke="currentColor"
              stroke-linecap="round"
              stroke-linejoin="round"
              stroke-width="2"
              viewBox="0 0 24 24"
              width="24"
              xmlns="http://www.w3.org/2000/svg"
            >
              <circle
                cx="12"
                cy="12"
                r="10"
              />
              <line
                x1="12"
                x2="12"
                y1="8"
                y2="12"
              />
              <line
                x1="12"
                x2="12.01"
                y1="16"
                y2="16"
              />
            </svg>
          </span>
        </div>
        <div
          class="Input__Tooltip Input__Tooltip_size_m"
        />
      </div>
    </div>
  </div>
  <div
    class="SelectBox__SuggestWrapper SelectBox__SuggestWrapper_size_m SelectBox__SuggestWrapper_visible"
  >
    <div
      class="SelectBox__Suggest SelectBox__Suggest_size_m"
    >
      <div
        class="SelectBox__NotFound SelectBox__NotFound_size_m"
      >
        Совпадений не найдено
      </div>
    </div>
  </div>
</div>
`;

exports[`Тестирование компонента SelectBox Должен отобразиться SelectBox в состоянии disabled 1`] = `
<div
  class="SelectBox SelectBox_size_m SelectBox_disabled"
>
  <div
    class="SelectBox__Icon SelectBox__Icon_size_m SelectBox__Icon_disabled"
  >
    <span
      class="FeatherIcon"
    >
      <svg
        class="feather feather-code"
        fill="none"
        height="24"
        stroke="currentColor"
        stroke-linecap="round"
        stroke-linejoin="round"
        stroke-width="2"
        viewBox="0 0 24 24"
        width="24"
        xmlns="http://www.w3.org/2000/svg"
      >
        <polyline
          points="16 18 22 12 16 6"
        />
        <polyline
          points="8 6 2 12 8 18"
        />
      </svg>
    </span>
  </div>
  <div
    class="SelectBox__Input SelectBox__Input_size_m"
  >
    <div
      class="Input Input_size_m Input_disabled"
    >
      <label
        class="Input__Label"
      >
        <input
          class="Input__Input Input__Input_size_m Input__Input_readonly"
          disabled=""
          placeholder=""
          readonly=""
          value=""
        />
        <div
          class="Input__DisabledIcon Input__DisabledIcon_size_m"
        >
          <span
            class="FeatherIcon"
          >
            <svg
              class="feather feather-lock"
              fill="none"
              height="24"
              stroke="currentColor"
              stroke-linecap="round"
              stroke-linejoin="round"
              stroke-width="2"
              viewBox="0 0 24 24"
              width="24"
              xmlns="http://www.w3.org/2000/svg"
            >
              <rect
                height="11"
                rx="2"
                ry="2"
                width="18"
                x="3"
                y="11"
              />
              <path
                d="M7 11V7a5 5 0 0 1 10 0v4"
              />
            </svg>
          </span>
        </div>
      </label>
      <div
        class="Input__ErrorDetail Input__ErrorDetail_size_m"
      >
        <div
          class="Input__ErrorIcon Input__ErrorIcon_size_m"
        >
          <span
            class="FeatherIcon"
          >
            <svg
              class="feather feather-alert-circle"
              fill="none"
              height="24"
              stroke="currentColor"
              stroke-linecap="round"
              stroke-linejoin="round"
              stroke-width="2"
              viewBox="0 0 24 24"
              width="24"
              xmlns="http://www.w3.org/2000/svg"
            >
              <circle
                cx="12"
                cy="12"
                r="10"
              />
              <line
                x1="12"
                x2="12"
                y1="8"
                y2="12"
              />
              <line
                x1="12"
                x2="12.01"
                y1="16"
                y2="16"
              />
            </svg>
          </span>
        </div>
        <div
          class="Input__Tooltip Input__Tooltip_size_m"
        />
      </div>
    </div>
  </div>
  <div
    class="SelectBox__SuggestWrapper SelectBox__SuggestWrapper_size_m"
  >
    <div
      class="SelectBox__Suggest SelectBox__Suggest_size_m"
    >
      <div
        class="SelectBox__NotFound SelectBox__NotFound_size_m"
      >
        Совпадений не найдено
      </div>
    </div>
  </div>
</div>
`;

exports[`Тестирование компонента SelectBox Должен отобразиться SelectBox в состоянии editable 1`] = `
<i>
  Росс
</i>
`;

exports[`Тестирование компонента SelectBox Должен отобразиться SelectBox в состоянии readonly 1`] = `
<div
  class="SelectBox SelectBox_size_m SelectBox_readonly"
>
  <div
    class="SelectBox__Icon SelectBox__Icon_size_m"
  >
    <span
      class="FeatherIcon"
    >
      <svg
        class="feather feather-code"
        fill="none"
        height="24"
        stroke="currentColor"
        stroke-linecap="round"
        stroke-linejoin="round"
        stroke-width="2"
        viewBox="0 0 24 24"
        width="24"
        xmlns="http://www.w3.org/2000/svg"
      >
        <polyline
          points="16 18 22 12 16 6"
        />
        <polyline
          points="8 6 2 12 8 18"
        />
      </svg>
    </span>
  </div>
  <div
    class="SelectBox__Input SelectBox__Input_size_m"
  >
    <div
      class="Input Input_size_m"
    >
      <label
        class="Input__Label"
      >
        <input
          class="Input__Input Input__Input_size_m Input__Input_readonly"
          placeholder=""
          readonly=""
          value=""
        />
      </label>
      <div
        class="Input__ErrorDetail Input__ErrorDetail_size_m"
      >
        <div
          class="Input__ErrorIcon Input__ErrorIcon_size_m"
        >
          <span
            class="FeatherIcon"
          >
            <svg
              class="feather feather-alert-circle"
              fill="none"
              height="24"
              stroke="currentColor"
              stroke-linecap="round"
              stroke-linejoin="round"
              stroke-width="2"
              viewBox="0 0 24 24"
              width="24"
              xmlns="http://www.w3.org/2000/svg"
            >
              <circle
                cx="12"
                cy="12"
                r="10"
              />
              <line
                x1="12"
                x2="12"
                y1="8"
                y2="12"
              />
              <line
                x1="12"
                x2="12.01"
                y1="16"
                y2="16"
              />
            </svg>
          </span>
        </div>
        <div
          class="Input__Tooltip Input__Tooltip_size_m"
        />
      </div>
    </div>
  </div>
  <div
    class="SelectBox__SuggestWrapper SelectBox__SuggestWrapper_size_m"
  >
    <div
      class="SelectBox__Suggest SelectBox__Suggest_size_m"
    >
      <div
        class="SelectBox__NotFound SelectBox__NotFound_size_m"
      >
        Совпадений не найдено
      </div>
    </div>
  </div>
</div>
`;

exports[`Тестирование компонента SelectBox Должен отобразиться SelectBox в состоянии success 1`] = `
<input
  class="Input__Input Input__Input_size_m Input__Input_readonly Input__Input_success"
  placeholder=""
  readonly=""
  value=""
/>
`;

exports[`Тестирование компонента SelectBox Должен отобразиться SelectBox с error = "Обязательное поле" 1`] = `
<div
  class="Input__Error Input__Error_size_m"
>
  Обязательное поле
</div>
`;

exports[`Тестирование компонента SelectBox Должен отобразиться SelectBox с errorDetail = "Обязательное поле"  1`] = `
<div
  class="Input__Tooltip Input__Tooltip_size_m Input__Tooltip_visible"
>
  Обязательное поле
</div>
`;

exports[`Тестирование компонента SelectBox Должен отобразиться SelectBox с size="l"  1`] = `
<div
  class="SelectBox SelectBox_size_l"
>
  <div
    class="SelectBox__Icon SelectBox__Icon_size_l"
  >
    <span
      class="FeatherIcon"
    >
      <svg
        class="feather feather-code"
        fill="none"
        height="24"
        stroke="currentColor"
        stroke-linecap="round"
        stroke-linejoin="round"
        stroke-width="2"
        viewBox="0 0 24 24"
        width="24"
        xmlns="http://www.w3.org/2000/svg"
      >
        <polyline
          points="16 18 22 12 16 6"
        />
        <polyline
          points="8 6 2 12 8 18"
        />
      </svg>
    </span>
  </div>
  <div
    class="SelectBox__Input SelectBox__Input_size_l"
  >
    <div
      class="Input Input_size_l"
    >
      <label
        class="Input__Label"
      >
        <input
          class="Input__Input Input__Input_size_l Input__Input_readonly"
          placeholder=""
          readonly=""
          value=""
        />
      </label>
      <div
        class="Input__ErrorDetail Input__ErrorDetail_size_l"
      >
        <div
          class="Input__ErrorIcon Input__ErrorIcon_size_l"
        >
          <span
            class="FeatherIcon"
          >
            <svg
              class="feather feather-alert-circle"
              fill="none"
              height="24"
              stroke="currentColor"
              stroke-linecap="round"
              stroke-linejoin="round"
              stroke-width="2"
              viewBox="0 0 24 24"
              width="24"
              xmlns="http://www.w3.org/2000/svg"
            >
              <circle
                cx="12"
                cy="12"
                r="10"
              />
              <line
                x1="12"
                x2="12"
                y1="8"
                y2="12"
              />
              <line
                x1="12"
                x2="12.01"
                y1="16"
                y2="16"
              />
            </svg>
          </span>
        </div>
        <div
          class="Input__Tooltip Input__Tooltip_size_l"
        />
      </div>
    </div>
  </div>
  <div
    class="SelectBox__SuggestWrapper SelectBox__SuggestWrapper_size_l"
  >
    <div
      class="SelectBox__Suggest SelectBox__Suggest_size_l"
    >
      <div
        class="SelectBox__NotFound SelectBox__NotFound_size_l"
      >
        Совпадений не найдено
      </div>
    </div>
  </div>
</div>
`;

exports[`Тестирование компонента SelectBox Должен отобразиться SelectBox с size="m"  1`] = `
<div
  class="SelectBox SelectBox_size_m"
>
  <div
    class="SelectBox__Icon SelectBox__Icon_size_m"
  >
    <span
      class="FeatherIcon"
    >
      <svg
        class="feather feather-code"
        fill="none"
        height="24"
        stroke="currentColor"
        stroke-linecap="round"
        stroke-linejoin="round"
        stroke-width="2"
        viewBox="0 0 24 24"
        width="24"
        xmlns="http://www.w3.org/2000/svg"
      >
        <polyline
          points="16 18 22 12 16 6"
        />
        <polyline
          points="8 6 2 12 8 18"
        />
      </svg>
    </span>
  </div>
  <div
    class="SelectBox__Input SelectBox__Input_size_m"
  >
    <div
      class="Input Input_size_m"
    >
      <label
        class="Input__Label"
      >
        <input
          class="Input__Input Input__Input_size_m Input__Input_readonly"
          placeholder=""
          readonly=""
          value=""
        />
      </label>
      <div
        class="Input__ErrorDetail Input__ErrorDetail_size_m"
      >
        <div
          class="Input__ErrorIcon Input__ErrorIcon_size_m"
        >
          <span
            class="FeatherIcon"
          >
            <svg
              class="feather feather-alert-circle"
              fill="none"
              height="24"
              stroke="currentColor"
              stroke-linecap="round"
              stroke-linejoin="round"
              stroke-width="2"
              viewBox="0 0 24 24"
              width="24"
              xmlns="http://www.w3.org/2000/svg"
            >
              <circle
                cx="12"
                cy="12"
                r="10"
              />
              <line
                x1="12"
                x2="12"
                y1="8"
                y2="12"
              />
              <line
                x1="12"
                x2="12.01"
                y1="16"
                y2="16"
              />
            </svg>
          </span>
        </div>
        <div
          class="Input__Tooltip Input__Tooltip_size_m"
        />
      </div>
    </div>
  </div>
  <div
    class="SelectBox__SuggestWrapper SelectBox__SuggestWrapper_size_m"
  >
    <div
      class="SelectBox__Suggest SelectBox__Suggest_size_m"
    >
      <div
        class="SelectBox__NotFound SelectBox__NotFound_size_m"
      >
        Совпадений не найдено
      </div>
    </div>
  </div>
</div>
`;

exports[`Тестирование компонента SelectBox Должен отобразиться SelectBox с size="s"  1`] = `
<div
  class="SelectBox SelectBox_size_s"
>
  <div
    class="SelectBox__Icon SelectBox__Icon_size_s"
  >
    <span
      class="FeatherIcon"
    >
      <svg
        class="feather feather-code"
        fill="none"
        height="24"
        stroke="currentColor"
        stroke-linecap="round"
        stroke-linejoin="round"
        stroke-width="2"
        viewBox="0 0 24 24"
        width="24"
        xmlns="http://www.w3.org/2000/svg"
      >
        <polyline
          points="16 18 22 12 16 6"
        />
        <polyline
          points="8 6 2 12 8 18"
        />
      </svg>
    </span>
  </div>
  <div
    class="SelectBox__Input SelectBox__Input_size_s"
  >
    <div
      class="Input Input_size_s"
    >
      <label
        class="Input__Label"
      >
        <input
          class="Input__Input Input__Input_size_s Input__Input_readonly"
          placeholder=""
          readonly=""
          value=""
        />
      </label>
      <div
        class="Input__ErrorDetail Input__ErrorDetail_size_s"
      >
        <div
          class="Input__ErrorIcon Input__ErrorIcon_size_s"
        >
          <span
            class="FeatherIcon"
          >
            <svg
              class="feather feather-alert-circle"
              fill="none"
              height="24"
              stroke="currentColor"
              stroke-linecap="round"
              stroke-linejoin="round"
              stroke-width="2"
              viewBox="0 0 24 24"
              width="24"
              xmlns="http://www.w3.org/2000/svg"
            >
              <circle
                cx="12"
                cy="12"
                r="10"
              />
              <line
                x1="12"
                x2="12"
                y1="8"
                y2="12"
              />
              <line
                x1="12"
                x2="12.01"
                y1="16"
                y2="16"
              />
            </svg>
          </span>
        </div>
        <div
          class="Input__Tooltip Input__Tooltip_size_s"
        />
      </div>
    </div>
  </div>
  <div
    class="SelectBox__SuggestWrapper SelectBox__SuggestWrapper_size_s"
  >
    <div
      class="SelectBox__Suggest SelectBox__Suggest_size_s"
    >
      <div
        class="SelectBox__NotFound SelectBox__NotFound_size_s"
      >
        Совпадений не найдено
      </div>
    </div>
  </div>
</div>
`;

exports[`Тестирование компонента SelectBox Должен отобразиться SelectBox с заголовком Страны 1`] = `
<input
  class="Input__Input Input__Input_size_m Input__Input_readonly Input__Input_with-label"
  placeholder=""
  readonly=""
  value=""
/>
`;

exports[`Тестирование компонента SelectBox Должен отобразиться SelectBox с заголовком-массивом нод 1`] = `
<div
  class="SelectBox SelectBox_size_m"
>
  <div
    class="SelectBox__Icon SelectBox__Icon_size_m"
  >
    <span
      class="FeatherIcon"
    >
      <svg
        class="feather feather-code"
        fill="none"
        height="24"
        stroke="currentColor"
        stroke-linecap="round"
        stroke-linejoin="round"
        stroke-width="2"
        viewBox="0 0 24 24"
        width="24"
        xmlns="http://www.w3.org/2000/svg"
      >
        <polyline
          points="16 18 22 12 16 6"
        />
        <polyline
          points="8 6 2 12 8 18"
        />
      </svg>
    </span>
  </div>
  <div
    class="SelectBox__Input SelectBox__Input_size_m"
  >
    <div
      class="Input Input_size_m"
    >
      <label
        class="Input__Label"
      >
        <span
          class="Input__LabelText Input__LabelText_size_m"
        >
          <span>
            Страны
          </span>
          <span>
            участники
          </span>
        </span>
        <input
          class="Input__Input Input__Input_size_m Input__Input_readonly Input__Input_with-label"
          placeholder=""
          readonly=""
          value=""
        />
      </label>
      <div
        class="Input__ErrorDetail Input__ErrorDetail_size_m"
      >
        <div
          class="Input__ErrorIcon Input__ErrorIcon_size_m"
        >
          <span
            class="FeatherIcon"
          >
            <svg
              class="feather feather-alert-circle"
              fill="none"
              height="24"
              stroke="currentColor"
              stroke-linecap="round"
              stroke-linejoin="round"
              stroke-width="2"
              viewBox="0 0 24 24"
              width="24"
              xmlns="http://www.w3.org/2000/svg"
            >
              <circle
                cx="12"
                cy="12"
                r="10"
              />
              <line
                x1="12"
                x2="12"
                y1="8"
                y2="12"
              />
              <line
                x1="12"
                x2="12.01"
                y1="16"
                y2="16"
              />
            </svg>
          </span>
        </div>
        <div
          class="Input__Tooltip Input__Tooltip_size_m"
        />
      </div>
    </div>
  </div>
  <div
    class="SelectBox__SuggestWrapper SelectBox__SuggestWrapper_size_m"
  >
    <div
      class="SelectBox__Suggest SelectBox__Suggest_size_m"
    >
      <div
        class="SelectBox__NotFound SelectBox__NotFound_size_m"
      >
        Совпадений не найдено
      </div>
    </div>
  </div>
</div>
`;

exports[`Тестирование компонента SelectBox Должен отобразиться SelectBox с заголовком-нодой 1`] = `
<input
  class="Input__Input Input__Input_size_m Input__Input_readonly Input__Input_with-label"
  placeholder=""
  readonly=""
  value=""
/>
`;

exports[`Тестирование компонента SelectBox Должен отобразиться SelectBox с текстом "Страна не найдена" 1`] = `
<div
  class="SelectBox__NotFound SelectBox__NotFound_size_m"
>
  Страна не найдена
</div>
`;

exports[`Тестирование компонента SelectBox Должен отобразиться SelectBox с форматированным списком formatOption 1`] = `
<div
  class="SuggestOption SuggestOption_size_m"
  id="select_box_option_0"
>
  австралия
</div>
`;

exports[`Тестирование компонента SelectBox Должен отобразиться SelectBox со скрытым полем errorDetail = "Обязательное поле" 1`] = `
<div
  class="Input__Tooltip Input__Tooltip_size_m"
>
  Обязательное поле
</div>
`;
