// Jest Snapshot v1, https://goo.gl/fbAQLP

exports[`Тестирование компонента InputSuggest Должен отобразиться InputSuggest 1`] = `
<div
  class="InputSuggest InputSuggest_size_m"
>
  <div
    class="InputSuggest__Input InputSuggest__Input_size_m"
  >
    <div
      class="Input Input_size_m"
    >
      <label
        class="Input__Label"
      >
        <input
          class="Input__Input Input__Input_size_m"
          placeholder=""
          value=""
        />
      </label>
      <div
        class="Input__ErrorDetail Input__ErrorDetail_size_m"
      >
        <div
          class="Input__ErrorIcon Input__ErrorIcon_size_m"
        >
          <span
            class="FeatherIcon"
          >
            <svg
              class="feather feather-alert-circle"
              fill="none"
              height="24"
              stroke="currentColor"
              stroke-linecap="round"
              stroke-linejoin="round"
              stroke-width="2"
              viewBox="0 0 24 24"
              width="24"
              xmlns="http://www.w3.org/2000/svg"
            >
              <circle
                cx="12"
                cy="12"
                r="10"
              />
              <line
                x1="12"
                x2="12"
                y1="8"
                y2="12"
              />
              <line
                x1="12"
                x2="12.01"
                y1="16"
                y2="16"
              />
            </svg>
          </span>
        </div>
        <div
          class="Input__Tooltip Input__Tooltip_size_m"
        />
      </div>
    </div>
  </div>
  <div
    class="InputSuggest__SuggestWrapper InputSuggest__SuggestWrapper_size_m"
  >
    <div
      class="InputSuggest__Suggest InputSuggest__Suggest_size_m"
    >
      <div
        class="Suggest"
      >
        <ul
          class="Suggest__Options"
        />
      </div>
    </div>
  </div>
</div>
`;

exports[`Тестирование компонента InputSuggest Должен отобразиться InputSuggest c value = "Россия" 1`] = `
<input
  class="Input__Input Input__Input_size_m"
  placeholder=""
  value="Россия"
/>
`;

exports[`Тестирование компонента InputSuggest Должен отобразиться InputSuggest в состоянии disabled 1`] = `
<div
  class="InputSuggest InputSuggest_size_m InputSuggest_disabled"
>
  <div
    class="InputSuggest__Input InputSuggest__Input_size_m"
  >
    <div
      class="Input Input_size_m Input_disabled"
    >
      <label
        class="Input__Label"
      >
        <input
          class="Input__Input Input__Input_size_m"
          disabled=""
          placeholder=""
          value=""
        />
        <div
          class="Input__DisabledIcon Input__DisabledIcon_size_m"
        >
          <span
            class="FeatherIcon"
          >
            <svg
              class="feather feather-lock"
              fill="none"
              height="24"
              stroke="currentColor"
              stroke-linecap="round"
              stroke-linejoin="round"
              stroke-width="2"
              viewBox="0 0 24 24"
              width="24"
              xmlns="http://www.w3.org/2000/svg"
            >
              <rect
                height="11"
                rx="2"
                ry="2"
                width="18"
                x="3"
                y="11"
              />
              <path
                d="M7 11V7a5 5 0 0 1 10 0v4"
              />
            </svg>
          </span>
        </div>
      </label>
      <div
        class="Input__ErrorDetail Input__ErrorDetail_size_m"
      >
        <div
          class="Input__ErrorIcon Input__ErrorIcon_size_m"
        >
          <span
            class="FeatherIcon"
          >
            <svg
              class="feather feather-alert-circle"
              fill="none"
              height="24"
              stroke="currentColor"
              stroke-linecap="round"
              stroke-linejoin="round"
              stroke-width="2"
              viewBox="0 0 24 24"
              width="24"
              xmlns="http://www.w3.org/2000/svg"
            >
              <circle
                cx="12"
                cy="12"
                r="10"
              />
              <line
                x1="12"
                x2="12"
                y1="8"
                y2="12"
              />
              <line
                x1="12"
                x2="12.01"
                y1="16"
                y2="16"
              />
            </svg>
          </span>
        </div>
        <div
          class="Input__Tooltip Input__Tooltip_size_m"
        />
      </div>
    </div>
  </div>
  <div
    class="InputSuggest__SuggestWrapper InputSuggest__SuggestWrapper_size_m"
  >
    <div
      class="InputSuggest__Suggest InputSuggest__Suggest_size_m"
    >
      <div
        class="Suggest"
      >
        <ul
          class="Suggest__Options"
        />
      </div>
    </div>
  </div>
</div>
`;

exports[`Тестирование компонента InputSuggest Должен отобразиться InputSuggest в состоянии readonly 1`] = `
<div
  class="InputSuggest InputSuggest_size_m InputSuggest_readonly"
>
  <div
    class="InputSuggest__Input InputSuggest__Input_size_m"
  >
    <div
      class="Input Input_size_m"
    >
      <label
        class="Input__Label"
      >
        <input
          class="Input__Input Input__Input_size_m Input__Input_readonly"
          placeholder=""
          readonly=""
          value=""
        />
      </label>
      <div
        class="Input__ErrorDetail Input__ErrorDetail_size_m"
      >
        <div
          class="Input__ErrorIcon Input__ErrorIcon_size_m"
        >
          <span
            class="FeatherIcon"
          >
            <svg
              class="feather feather-alert-circle"
              fill="none"
              height="24"
              stroke="currentColor"
              stroke-linecap="round"
              stroke-linejoin="round"
              stroke-width="2"
              viewBox="0 0 24 24"
              width="24"
              xmlns="http://www.w3.org/2000/svg"
            >
              <circle
                cx="12"
                cy="12"
                r="10"
              />
              <line
                x1="12"
                x2="12"
                y1="8"
                y2="12"
              />
              <line
                x1="12"
                x2="12.01"
                y1="16"
                y2="16"
              />
            </svg>
          </span>
        </div>
        <div
          class="Input__Tooltip Input__Tooltip_size_m"
        />
      </div>
    </div>
  </div>
  <div
    class="InputSuggest__SuggestWrapper InputSuggest__SuggestWrapper_size_m"
  >
    <div
      class="InputSuggest__Suggest InputSuggest__Suggest_size_m"
    >
      <div
        class="Suggest"
      >
        <ul
          class="Suggest__Options"
        />
      </div>
    </div>
  </div>
</div>
`;

exports[`Тестирование компонента InputSuggest Должен отобразиться InputSuggest в состоянии success 1`] = `
<input
  class="Input__Input Input__Input_size_m Input__Input_success"
  placeholder=""
  value=""
/>
`;

exports[`Тестирование компонента InputSuggest Должен отобразиться InputSuggest с error = "Обязательное поле" 1`] = `
<div
  class="Input__Error Input__Error_size_m"
>
  Обязательное поле
</div>
`;

exports[`Тестирование компонента InputSuggest Должен отобразиться InputSuggest с errorDetail = "Обязательное поле"  1`] = `
<div
  class="Input__Tooltip Input__Tooltip_size_m Input__Tooltip_visible"
>
  Обязательное поле
</div>
`;

exports[`Тестирование компонента InputSuggest Должен отобразиться InputSuggest с size="l"  1`] = `
<div
  class="InputSuggest InputSuggest_size_l"
>
  <div
    class="InputSuggest__Input InputSuggest__Input_size_l"
  >
    <div
      class="Input Input_size_l"
    >
      <label
        class="Input__Label"
      >
        <input
          class="Input__Input Input__Input_size_l"
          placeholder=""
          value=""
        />
      </label>
      <div
        class="Input__ErrorDetail Input__ErrorDetail_size_l"
      >
        <div
          class="Input__ErrorIcon Input__ErrorIcon_size_l"
        >
          <span
            class="FeatherIcon"
          >
            <svg
              class="feather feather-alert-circle"
              fill="none"
              height="24"
              stroke="currentColor"
              stroke-linecap="round"
              stroke-linejoin="round"
              stroke-width="2"
              viewBox="0 0 24 24"
              width="24"
              xmlns="http://www.w3.org/2000/svg"
            >
              <circle
                cx="12"
                cy="12"
                r="10"
              />
              <line
                x1="12"
                x2="12"
                y1="8"
                y2="12"
              />
              <line
                x1="12"
                x2="12.01"
                y1="16"
                y2="16"
              />
            </svg>
          </span>
        </div>
        <div
          class="Input__Tooltip Input__Tooltip_size_l"
        />
      </div>
    </div>
  </div>
  <div
    class="InputSuggest__SuggestWrapper InputSuggest__SuggestWrapper_size_l"
  >
    <div
      class="InputSuggest__Suggest InputSuggest__Suggest_size_l"
    >
      <div
        class="Suggest"
      >
        <ul
          class="Suggest__Options"
        />
      </div>
    </div>
  </div>
</div>
`;

exports[`Тестирование компонента InputSuggest Должен отобразиться InputSuggest с size="m"  1`] = `
<div
  class="InputSuggest InputSuggest_size_m"
>
  <div
    class="InputSuggest__Input InputSuggest__Input_size_m"
  >
    <div
      class="Input Input_size_m"
    >
      <label
        class="Input__Label"
      >
        <input
          class="Input__Input Input__Input_size_m"
          placeholder=""
          value=""
        />
      </label>
      <div
        class="Input__ErrorDetail Input__ErrorDetail_size_m"
      >
        <div
          class="Input__ErrorIcon Input__ErrorIcon_size_m"
        >
          <span
            class="FeatherIcon"
          >
            <svg
              class="feather feather-alert-circle"
              fill="none"
              height="24"
              stroke="currentColor"
              stroke-linecap="round"
              stroke-linejoin="round"
              stroke-width="2"
              viewBox="0 0 24 24"
              width="24"
              xmlns="http://www.w3.org/2000/svg"
            >
              <circle
                cx="12"
                cy="12"
                r="10"
              />
              <line
                x1="12"
                x2="12"
                y1="8"
                y2="12"
              />
              <line
                x1="12"
                x2="12.01"
                y1="16"
                y2="16"
              />
            </svg>
          </span>
        </div>
        <div
          class="Input__Tooltip Input__Tooltip_size_m"
        />
      </div>
    </div>
  </div>
  <div
    class="InputSuggest__SuggestWrapper InputSuggest__SuggestWrapper_size_m"
  >
    <div
      class="InputSuggest__Suggest InputSuggest__Suggest_size_m"
    >
      <div
        class="Suggest"
      >
        <ul
          class="Suggest__Options"
        />
      </div>
    </div>
  </div>
</div>
`;

exports[`Тестирование компонента InputSuggest Должен отобразиться InputSuggest с size="s"  1`] = `
<div
  class="InputSuggest InputSuggest_size_s"
>
  <div
    class="InputSuggest__Input InputSuggest__Input_size_s"
  >
    <div
      class="Input Input_size_s"
    >
      <label
        class="Input__Label"
      >
        <input
          class="Input__Input Input__Input_size_s"
          placeholder=""
          value=""
        />
      </label>
      <div
        class="Input__ErrorDetail Input__ErrorDetail_size_s"
      >
        <div
          class="Input__ErrorIcon Input__ErrorIcon_size_s"
        >
          <span
            class="FeatherIcon"
          >
            <svg
              class="feather feather-alert-circle"
              fill="none"
              height="24"
              stroke="currentColor"
              stroke-linecap="round"
              stroke-linejoin="round"
              stroke-width="2"
              viewBox="0 0 24 24"
              width="24"
              xmlns="http://www.w3.org/2000/svg"
            >
              <circle
                cx="12"
                cy="12"
                r="10"
              />
              <line
                x1="12"
                x2="12"
                y1="8"
                y2="12"
              />
              <line
                x1="12"
                x2="12.01"
                y1="16"
                y2="16"
              />
            </svg>
          </span>
        </div>
        <div
          class="Input__Tooltip Input__Tooltip_size_s"
        />
      </div>
    </div>
  </div>
  <div
    class="InputSuggest__SuggestWrapper InputSuggest__SuggestWrapper_size_s"
  >
    <div
      class="InputSuggest__Suggest InputSuggest__Suggest_size_s"
    >
      <div
        class="Suggest"
      >
        <ul
          class="Suggest__Options"
        />
      </div>
    </div>
  </div>
</div>
`;

exports[`Тестирование компонента InputSuggest Должен отобразиться InputSuggest с заголовком Страны 1`] = `
<input
  class="Input__Input Input__Input_size_m Input__Input_with-label"
  placeholder=""
  value=""
/>
`;

exports[`Тестирование компонента InputSuggest Должен отобразиться InputSuggest с заголовком-массивом нод 1`] = `
<div
  class="InputSuggest InputSuggest_size_m"
>
  <div
    class="InputSuggest__Input InputSuggest__Input_size_m"
  >
    <div
      class="Input Input_size_m"
    >
      <label
        class="Input__Label"
      >
        <span
          class="Input__LabelText Input__LabelText_size_m"
        >
          <span>
            Страны
          </span>
          <span>
            участники
          </span>
        </span>
        <input
          class="Input__Input Input__Input_size_m Input__Input_with-label"
          placeholder=""
          value=""
        />
      </label>
      <div
        class="Input__ErrorDetail Input__ErrorDetail_size_m"
      >
        <div
          class="Input__ErrorIcon Input__ErrorIcon_size_m"
        >
          <span
            class="FeatherIcon"
          >
            <svg
              class="feather feather-alert-circle"
              fill="none"
              height="24"
              stroke="currentColor"
              stroke-linecap="round"
              stroke-linejoin="round"
              stroke-width="2"
              viewBox="0 0 24 24"
              width="24"
              xmlns="http://www.w3.org/2000/svg"
            >
              <circle
                cx="12"
                cy="12"
                r="10"
              />
              <line
                x1="12"
                x2="12"
                y1="8"
                y2="12"
              />
              <line
                x1="12"
                x2="12.01"
                y1="16"
                y2="16"
              />
            </svg>
          </span>
        </div>
        <div
          class="Input__Tooltip Input__Tooltip_size_m"
        />
      </div>
    </div>
  </div>
  <div
    class="InputSuggest__SuggestWrapper InputSuggest__SuggestWrapper_size_m"
  >
    <div
      class="InputSuggest__Suggest InputSuggest__Suggest_size_m"
    >
      <div
        class="Suggest"
      >
        <ul
          class="Suggest__Options"
        />
      </div>
    </div>
  </div>
</div>
`;

exports[`Тестирование компонента InputSuggest Должен отобразиться InputSuggest с заголовком-нодой 1`] = `
<input
  class="Input__Input Input__Input_size_m Input__Input_with-label"
  placeholder=""
  value=""
/>
`;

exports[`Тестирование компонента InputSuggest Должен отобразиться InputSuggest со свойством name = "Countries" 1`] = `
<input
  class="Input__Input Input__Input_size_m"
  name="Countries"
  placeholder=""
  value=""
/>
`;

exports[`Тестирование компонента InputSuggest Должен отобразиться InputSuggest со скрытым полем errorDetail = "Обязательное поле" 1`] = `
<div
  class="Input__Tooltip Input__Tooltip_size_m"
>
  Обязательное поле
</div>
`;
